<?xml version="1.0" standalone="no"?> <!DOCTYPE svg PUBLIC "-//W3C//DTD SVG 1.0//EN" "http://www.w3.org/TR/2001/REC-SVG-20010904/DTD/svg10.dtd" > 
<svg xmlns="http://www.w3.org/2000/svg" width="100%" height="100%">
<metadata version="1.0"><uniqueid id="com.myfonts.linotype.avenir.55-roman.wfkit2.ig1q"/><vendor name="MyFonts" url="http://www.myfonts.com/"/><credits><credit name="Adrian Frutiger" url="http://www.myfonts.com/person/frutiger/adrian/"/></credits><description><text lang="en">This is a Webfont from MyFonts. Full information about this font:
http://www.myfonts.com/fonts/linotype/avenir/
</text></description><license url="http://www.myfonts.com/viewlicense?lid=1631"/><copyright><text lang="en">Part of the digitally encoded machine readable outline data for producing the Typefaces provided is copyrighted © 1981 - 2007 Linotype GmbH, www.linotype.com. All rights reserved. This software is the property of Linotype GmbH, and may not be reproduced, modified, disclosed or transferred without the express written approval of Linotype GmbH. Copyright © 1989, 1995 Adobe Systems Incorporated. All Rights Reserved. Avenir is a trademark of Linotype GmbH registered in the U.S. Patent and Trademark Office and may be registered in certain other jurisdictions. This typeface is original artwork of Adrian Frutiger. The design may be protected in certain jurisdictions.</text></copyright><trademark><text lang="en">Avenir is a trademark of Linotype GmbH registered in the U.S. Patent and Trademark Office and may be registered in certain other jurisdictions.</text></trademark></metadata>
<defs >
<font id="wf" horiz-adv-x="450" ><font-face
    font-family="Avenir LT 55 Roman"
    units-per-em="1000"
    panose-1="2 11 5 3 2 0 0 2 0 3"
    ascent="762"
    descent="-238"
    alphabetic="0" />
<missing-glyph horiz-adv-x="278" />
<glyph unicode=" " glyph-name="space" horiz-adv-x="278" />
<glyph unicode="!" glyph-name="exclam" horiz-adv-x="278" d="M181 198H97V708H181V198ZM139 114Q164 114 181 97T199 54Q199 29 181 12T139 -6Q116 -6 98 11T79 54Q79 79 96 96T139 114Z" />
<glyph unicode="&quot;" glyph-name="quotedbl" horiz-adv-x="519" d="M150 708H222V468H150V708ZM297 708H369V468H297V708Z" />
<glyph unicode="#" glyph-name="numbersign" horiz-adv-x="556" d="M128 213H30V279H138L158 431H60V497H168L198 708H265L235 497H361L391 708H458L428 497H526V431H419L398 279H496V213H388L358 0H291L321 213H195L165 0H98L128 213ZM352 431H226L205 279H331L352 431Z" />
<glyph unicode="$" glyph-name="dollar" horiz-adv-x="556" d="M256 -12Q193 -12 137 9T42 81L112 142Q134 108 173 88T256 66V320Q217 330 181 346T118 387T74 444T58 523Q58 565 74 600T117 660T181 701T256 720V786H304V720Q358 720 410 700T498 639L432 579Q409
609 376 625T304 642V393Q344 380 382 365T449 328T496 272T514 190Q514 145 497 109T452 47T385 6T304 -12V-83H256V-12ZM256 642Q207 633 178 602T148 522Q148 496 156 478T179 447T213 425T256 406V642ZM304 66Q355 72 389 105T424 186Q424 213 414 233T387
267T349 290T304 307V66Z" />
<glyph unicode="%" glyph-name="percent" horiz-adv-x="833" d="M38 545Q38 582 51 614T88 669T144 706T213 720Q250 720 282 707T337 670T374 614T388 545Q388 508 375 476T338 421T282 384T213 370Q176 370 144 383T89 420T52 476T38 545ZM110 545Q110 524 118
506T141 473T173 450T213 442Q234 442 252 450T285 472T307 505T316 545Q316 566 308 584T285 617T253 640T213 648Q192 648 174 640T141 618T119 585T110 545ZM445 163Q445 200 458 232T495 287T551 324T620 338Q657 338 689 325T744 288T781 232T795 163Q795
126 782 94T745 39T689 2T620 -12Q583 -12 551 1T496 38T459 94T445 163ZM517 163Q517 142 525 124T548 91T580 68T620 60Q641 60 659 68T692 90T714 123T723 163Q723 184 715 202T692 235T660 258T620 266Q599 266 581 258T548 236T526 203T517 163ZM614 740L669
708L225 -32L170 0L614 740Z" />
<glyph unicode="&amp;" glyph-name="ampersand" horiz-adv-x="722" d="M497 102Q454 48 405 18T285 -12Q240 -12 199 1T128 41T79 104T60 190Q60 227 72 258T106 315T156 360T217 395Q182 430 157 469T132 559Q132 598 147 628T187 679T245 710T315 721Q351 721
383 711T439 682T478 633T492 564Q492 531 479 504T444 455T396 416T342 384L492 225L587 384H682L546 166L708 0H593L497 102ZM290 435Q310 446 331 458T369 485T397 520T408 566Q408 605 382 627T318 649Q276 649 246 624T216 554Q216 525 231 503T265 461L290
435ZM269 344Q246 332 224 318T184 285T155 244T144 193Q144 164 155 140T185 98T229 70T282 60Q309 60 332 68T374 89T411 120T446 158L269 344Z" />
<glyph unicode="&apos;" glyph-name="quotesingle" horiz-adv-x="278" d="M103 708H175V468H103V708Z" />
<glyph unicode="(" glyph-name="parenleft" horiz-adv-x="278" d="M201 -156Q129 -57 92 58T55 288Q55 412 93 525T201 732L255 692Q191 604 159 501T127 288Q127 228 135 176T159 76T199 -20T255 -118L201 -156Z" />
<glyph unicode=")" glyph-name="parenright" horiz-adv-x="278" d="M77 732Q149 633 186 518T223 288Q223 164 185 51T77 -156L23 -116Q87 -28 119 75T151 288Q151 348 143 400T119 500T79 596T23 694L77 732Z" />
<glyph unicode="*" glyph-name="asterisk" horiz-adv-x="444" d="M252 559L394 607L413 549L272 501L361 382L312 344L222 467L135 344L85 382L172 501L31 549L50 607L192 559V708H252V559Z" />
<glyph unicode="+" glyph-name="plus" horiz-adv-x="666" d="M72 336H300V564H366V336H594V270H366V42H300V270H72V336Z" />
<glyph unicode="," glyph-name="comma" horiz-adv-x="278" d="M129 -138H52L120 102H211L129 -138Z" />
<glyph unicode="-" glyph-name="hyphen" horiz-adv-x="333" d="M44 276H289V204H44V276Z" />
<glyph unicode="." glyph-name="period" horiz-adv-x="278" d="M139 114Q164 114 181 97T199 54Q199 29 181 12T139 -6Q116 -6 98 11T79 54Q79 79 96 96T139 114Z" />
<glyph unicode="/" glyph-name="slash" horiz-adv-x="370" d="M66 -43L3 -18L304 750L367 726L66 -43Z" />
<glyph unicode="0" glyph-name="zero" horiz-adv-x="556" d="M38 354Q38 414 48 479T85 597T158 685T278 720Q351 720 397 686T471 598T508 479T518 354Q518 294 508 229T471 111T398 23T278 -12Q205 -12 159 22T85 110T48 229T38 354ZM122 354Q122 328 124 296T131
232T147 168T175 113T218 75T278 60Q313 60 338 74T380 113T408 168T424 231T432 296T434 354Q434 380 432 412T425 476T409 540T381 595T338 633T278 648Q243 648 218 634T176 595T148 540T132 477T124 412T122 354Z" />
<glyph unicode="1" glyph-name="one" horiz-adv-x="556" d="M360 0H276V600H274L147 493L97 554L287 708H360V0Z" />
<glyph unicode="2" glyph-name="two" horiz-adv-x="556" d="M50 96L317 356Q342 380 361 400T392 440T411 481T417 528Q417 556 407 578T380 615T339 639T288 648Q234 648 199 617T154 535L63 543Q70 586 89 619T138 675T205 708T285 720Q329 720 368 708T436
671T483 611T501 528Q501 486 490 452T459 390T415 336T363 285L145 80V78H506V0H50V96Z" />
<glyph unicode="3" glyph-name="three" horiz-adv-x="556" d="M204 408H230Q256 408 284 412T336 429T375 466T391 531Q391 585 358 616T270 648Q225 648 192 628T140 569L59 600Q85 660 140 690T264 720Q306 720 344 708T412 673T458 616T475 535Q475 479 442
435T354 373V371Q388 365 414 349T460 310T489 256T499 193Q499 142 480 104T429 40T355 1T265 -12Q184 -12 124 23T37 137L122 165Q140 108 173 84T265 60Q295 60 321 70T366 98T397 142T409 199Q409 238 394 264T353 306T295 329T230 336H204V408Z" />
<glyph unicode="4" glyph-name="four" horiz-adv-x="556" d="M419 240H521V162H419V0H335V162H35V255L316 708H419V240ZM335 610H333L107 240H335V610Z" />
<glyph unicode="5" glyph-name="five" horiz-adv-x="556" d="M474 630H185L182 439Q202 449 226 452T273 456Q324 456 365 439T437 390T483 316T499 223Q499 170 481 127T430 53T353 5T256 -12Q175 -12 126 23T47 117L131 149Q149 109 183 85T263 60Q295 60 322
71T370 104T403 156T415 223Q415 262 402 292T365 342T309 373T240 384Q204 384 166 372T96 340L103 708H474V630Z" />
<glyph unicode="6" glyph-name="six" horiz-adv-x="556" d="M204 413L206 411Q226 422 252 427T301 432Q347 432 386 416T454 371T499 300T515 210Q515 158 497 117T447 48T372 4T278 -12Q228 -12 185 3T109 47T59 117T41 210Q41 271 60 317T108 409L296 708H394L204
413ZM278 360Q246 360 218 350T170 320T137 272T125 210Q125 175 137 148T169 101T218 71T278 60Q310 60 338 70T386 100T419 147T431 210Q431 244 419 272T387 319T338 349T278 360Z" />
<glyph unicode="7" glyph-name="seven" horiz-adv-x="556" d="M480 630L197 0H102L390 630H48V708H480V630Z" />
<glyph unicode="8" glyph-name="eight" horiz-adv-x="556" d="M76 535Q76 577 91 611T134 669T198 706T278 720Q321 720 358 707T422 669T464 611T480 535Q480 510 472 485T449 439T413 402T364 379V377Q396 370 422 354T466 313T494 259T504 195Q504 147 487
109T439 43T367 2T278 -12Q231 -12 190 2T118 43T70 108T52 195Q52 228 62 258T90 313T134 353T192 377V379Q165 386 144 402T107 439T84 485T76 535ZM160 531Q160 480 192 447T278 414Q331 414 363 447T396 531Q396 582 364 615T278 648Q225 648 193 615T160 531ZM136
201Q136 170 147 144T177 100T222 71T278 60Q308 60 333 70T378 99T409 144T420 201Q420 232 409 258T379 302T334 331T278 342Q248 342 223 332T178 303T147 258T136 201Z" />
<glyph unicode="9" glyph-name="nine" horiz-adv-x="556" d="M352 295L350 297Q330 286 304 281T255 276Q209 276 170 292T102 337T57 407T41 498Q41 550 59 591T109 660T184 704T278 720Q328 720 371 705T447 661T497 591T515 498Q515 467 510 441T496 391T475
345T448 299L260 0H162L352 295ZM278 348Q310 348 338 358T386 388T419 435T431 498Q431 532 419 560T387 607T338 637T278 648Q246 648 218 638T170 608T137 560T125 498Q125 463 137 436T169 389T218 359T278 348Z" />
<glyph unicode=":" glyph-name="colon" horiz-adv-x="278" d="M139 480Q164 480 181 463T199 420Q199 395 181 378T139 360Q116 360 98 377T79 420Q79 445 96 462T139 480ZM139 114Q164 114 181 97T199 54Q199 29 181 12T139 -6Q116 -6 98 11T79 54Q79 79 96 96T139 114Z" />
<glyph unicode=";" glyph-name="semicolon" horiz-adv-x="278" d="M129 -138H52L120 102H211L129 -138ZM139 480Q164 480 181 463T199 420Q199 395 181 378T139 360Q116 360 98 377T79 420Q79 445 96 462T139 480Z" />
<glyph unicode="&lt;" glyph-name="less" horiz-adv-x="666" d="M594 498L153 303L594 108V42L72 274V332L594 564V498Z" />
<glyph unicode="=" glyph-name="equal" horiz-adv-x="666" d="M72 414H594V348H72V414ZM72 258H594V192H72V258Z" />
<glyph unicode="&gt;" glyph-name="greater" horiz-adv-x="666" d="M72 108L513 303L72 498V564L594 332V274L72 42V108Z" />
<glyph unicode="?" glyph-name="question" horiz-adv-x="482" d="M189 261Q189 289 192 307T204 339T225 368T258 402Q273 418 288 433T316 466T337 502T345 545Q345 593 317 623T239 654Q188 654 157 624T117 545L27 555Q34 596 52 628T99 681T163 714T240 726Q281
726 316 715T378 681T420 625T435 548Q435 515 426 489T401 440T364 397T321 355Q305 340 296 329T281 306T275 280T273 244V198H189V261ZM231 114Q256 114 273 97T291 54Q291 29 273 12T231 -6Q208 -6 190 11T171 54Q171 79 188 96T231 114Z" />
<glyph unicode="@" glyph-name="at" horiz-adv-x="800" d="M262 293Q262 251 286 224T349 197Q382 197 410 218T459 272T492 341T504 409Q504 428 497 445T479 475T454 495T423 503Q388 503 359 483T308 431T274 363T262 293ZM535 267Q531 255 529 242T526 217Q526
197 550 197Q574 197 599 215T644 264T677 334T690 415Q690 474 667 521T606 602T519 654T418 672Q353 672 297 647T200 578T134 476T110 354Q110 287 135 229T202 128T300 61T418 36Q493 36 561 69T670 157H733Q709 116 675 84T600 29T513 -6T418 -18Q339 -18
271 11T153 90T73 208T44 354Q44 432 73 500T154 618T273 697T418 726Q487 726 548 704T655 641T729 544T756 420Q756 355 733 302T674 211T598 152T522 131Q496 131 478 147T458 197H456Q433 170 404 151T331 131Q299 131 273 143T229 176T200 225T190 286Q190
338 206 389T253 480T327 544T423 569Q458 569 487 551T534 487H536L554 550H619L535 267Z" />
<glyph unicode="A" glyph-name="A" horiz-adv-x="704" d="M318 708H397L698 0H600L528 174H174L101 0H6L318 708ZM356 600H354L207 252H496L356 600Z" />
<glyph unicode="B" glyph-name="B" horiz-adv-x="630" d="M88 708H304Q348 708 390 699T465 670T518 616T539 534Q539 472 506 432T415 374V372Q449 369 478 355T529 317T563 264T575 198Q575 139 551 101T487 41T398 9T299 0H88V708ZM172 408H288Q318 408 346
412T398 428T435 463T449 523Q449 556 436 576T402 609T353 625T297 630H172V408ZM172 78H314Q345 78 375 84T430 105T470 143T485 201Q485 238 471 263T433 303T379 324T316 330H172V78Z" />
<glyph unicode="C" glyph-name="C" horiz-adv-x="704" d="M584 562Q552 605 505 626T407 648Q348 648 299 624T213 560T157 466T137 354Q137 292 157 239T212 146T297 83T407 60Q472 60 523 85T612 159L675 106Q627 42 560 12T407 -18Q331 -18 265 10T151 87T75
205T47 354Q47 432 73 500T148 618T262 697T407 726Q479 726 545 700T657 615L584 562Z" />
<glyph unicode="D" glyph-name="D" horiz-adv-x="741" d="M75 708H347Q382 708 421 700T498 675T572 629T635 562T678 471T694 354Q694 289 678 238T635 147T573 79T499 34T421 8T347 0H75V708ZM159 78H319Q380 78 432 94T522 143T582 229T604 354Q604 427 582
479T522 564T432 614T319 630H159V78Z" />
<glyph unicode="E" glyph-name="E" horiz-adv-x="593" d="M88 708H533V630H172V408H509V330H172V78H551V0H88V708Z" />
<glyph unicode="F" glyph-name="F" horiz-adv-x="556" d="M88 708H527V630H172V396H502V318H172V0H88V708Z" />
<glyph unicode="G" glyph-name="G" horiz-adv-x="778" d="M690 48Q629 14 562 -2T425 -18Q342 -18 273 9T154 85T75 202T47 354Q47 438 76 506T158 623T279 699T428 726Q498 726 562 705T678 633L615 567Q579 606 528 627T422 648Q361 648 309 626T219 565T159
472T137 354Q137 291 158 237T218 144T311 82T430 60Q473 60 520 70T606 101V318H443V396H690V48Z" />
<glyph unicode="H" glyph-name="H" horiz-adv-x="722" d="M88 708H172V408H550V708H634V0H550V330H172V0H88V708Z" />
<glyph unicode="I" glyph-name="I" horiz-adv-x="260" d="M88 708H172V0H88V708Z" />
<glyph unicode="J" glyph-name="J" horiz-adv-x="482" d="M394 183Q394 147 384 112T350 47T288 0T192 -18Q117 -18 67 20T3 134L87 151Q95 109 121 85T193 60Q229 60 252 73T287 107T305 155T310 212V708H394V183Z" />
<glyph unicode="K" glyph-name="K" horiz-adv-x="630" d="M88 708H172V402H184L506 708H627L277 385L644 0H521L184 360H172V0H88V708Z" />
<glyph unicode="L" glyph-name="L" horiz-adv-x="500" d="M88 708H172V78H496V0H88V708Z" />
<glyph unicode="M" glyph-name="M" horiz-adv-x="907" d="M88 708H213L453 153H455L697 708H819V0H735V594H733L479 0H428L174 594H172V0H88V708Z" />
<glyph unicode="N" glyph-name="N" horiz-adv-x="778" d="M88 708H194L604 120H606V708H690V0H584L174 588H172V0H88V708Z" />
<glyph unicode="O" glyph-name="O" horiz-adv-x="834" d="M417 -18Q336 -18 269 10T152 87T75 205T47 354Q47 434 74 502T151 620T268 698T417 726Q498 726 565 698T682 621T759 503T787 354Q787 274 760 206T683 88T566 10T417 -18ZM417 60Q479 60 530 83T619
146T676 239T697 354Q697 415 677 468T619 562T531 625T417 648Q355 648 304 625T215 562T158 469T137 354Q137 293 157 240T215 146T303 83T417 60Z" />
<glyph unicode="P" glyph-name="P" horiz-adv-x="593" d="M88 708H298Q347 708 391 699T470 667T525 607T546 514Q546 456 524 418T468 358T392 327T314 318H172V0H88V708ZM172 396H314Q377 396 416 424T456 513Q456 573 417 601T314 630H172V396Z" />
<glyph unicode="Q" glyph-name="Q" horiz-adv-x="834" d="M822 0H411Q333 0 267 28T152 104T75 219T47 363Q47 440 75 506T151 621T266 698T411 726Q489 726 555 698T670 622T747 507T775 363Q775 318 763 274T729 191T675 122T603 74V72H822V0ZM137 363Q137 303
158 251T215 161T302 100T411 78Q469 78 519 100T606 160T664 251T685 363Q685 422 665 474T608 564T521 625T411 648Q351 648 301 626T215 565T158 474T137 363Z" />
<glyph unicode="R" glyph-name="R" horiz-adv-x="611" d="M88 708H269Q320 708 370 702T461 676T526 618T551 513Q551 435 504 387T374 326L575 0H472L280 318H172V0H88V708ZM172 396H247Q282 396 319 398T388 411T440 445T461 513Q461 551 446 574T407 609T352
626T290 630H172V396Z" />
<glyph unicode="S" glyph-name="S" horiz-adv-x="556" d="M424 583Q403 617 368 632T295 648Q267 648 240 641T192 620T157 583T144 529Q144 505 151 487T176 453T222 425T293 399Q334 386 372 371T440 333T487 276T505 189Q505 136 484 97T429 33T349 -5T256
-18Q225 -18 194 -13T135 4T81 34T38 80L110 139Q133 100 174 80T261 60Q288 60 315 68T365 91T401 130T415 183Q415 216 404 236T370 272T312 299T230 327Q192 339 160 354T105 392T68 446T54 522Q54 573 74 611T128 674T205 713T295 726Q355 726 404 708T493
643L424 583Z" />
<glyph unicode="T" glyph-name="T" horiz-adv-x="574" d="M563 630H329V0H245V630H11V708H563V630Z" />
<glyph unicode="U" glyph-name="U" horiz-adv-x="704" d="M619 270Q619 212 605 160T559 69T476 6T352 -18Q279 -18 228 5T146 68T100 160T85 270V708H169V282Q169 239 178 199T208 128T264 79T352 60Q405 60 440 78T496 128T526 199T535 282V708H619V270Z" />
<glyph unicode="V" glyph-name="V" horiz-adv-x="611" d="M-9 708H86L304 126H306L531 708H620L343 0H262L-9 708Z" />
<glyph unicode="W" glyph-name="W" horiz-adv-x="963" d="M6 708H99L260 120H262L436 708H530L703 120H705L869 708H957L749 0H658L483 600H481L305 0H213L6 708Z" />
<glyph unicode="X" glyph-name="X" horiz-adv-x="630" d="M255 373L17 708H125L316 431L505 708H610L372 373L633 0H522L312 314L101 0H-3L255 373Z" />
<glyph unicode="Y" glyph-name="Y" horiz-adv-x="594" d="M255 305L-9 708H98L297 388L502 708H603L339 305V0H255V305Z" />
<glyph unicode="Z" glyph-name="Z" horiz-adv-x="574" d="M29 75L438 630H35V708H540V636L131 78H545V0H29V75Z" />
<glyph unicode="[" glyph-name="bracketleft" horiz-adv-x="259" d="M193 672H100V-96H193V-156H28V732H193V672Z" />
<glyph unicode="\" glyph-name="backslash" horiz-adv-x="370" d="M3 726L66 750L367 -18L304 -43L3 726Z" />
<glyph unicode="]" glyph-name="bracketright" horiz-adv-x="259" d="M66 732H231V-156H66V-96H159V672H66V732Z" />
<glyph unicode="^" glyph-name="asciicircum" horiz-adv-x="666" d="M303 708H363L586 275H512L333 624L154 275H80L303 708Z" />
<glyph unicode="_" glyph-name="underscore" horiz-adv-x="500" d="M0 -75H500V-125H0V-75Z" />
<glyph unicode="`" glyph-name="grave" horiz-adv-x="240" d="M189 564H118L-25 708H85L189 564Z" />
<glyph unicode="a" glyph-name="a" horiz-adv-x="519" d="M68 408Q104 445 153 462T254 480Q358 480 404 431T450 282V81Q450 61 452 40T457 0H382Q378 16 378 35T377 70H375Q352 34 314 11T221 -12Q185 -12 154 -3T99 23T61 67T47 127Q47 185 77 218T151 267T247
287T342 291H372V305Q372 356 342 382T256 408Q218 408 182 396T117 357L68 408ZM294 225Q219 225 175 204T131 135Q131 91 160 73T234 54Q268 54 293 65T336 96T362 140T372 195V225H294Z" />
<glyph unicode="b" glyph-name="b" horiz-adv-x="611" d="M70 756H148V400H150Q182 438 224 459T318 480Q373 480 418 462T496 410T546 332T564 234Q564 181 546 136T497 58T422 7T330 -12Q267 -12 220 15T150 83H148V0H70V756ZM148 234Q148 197 159 166T193 111T245
74T314 60Q352 60 382 73T435 110T468 165T480 234Q480 271 469 302T435 357T383 394T314 408Q276 408 246 395T193 358T160 303T148 234Z" />
<glyph unicode="c" glyph-name="c" horiz-adv-x="482" d="M407 351Q382 381 353 394T289 408Q250 408 220 395T171 357T141 302T131 234Q131 198 142 167T174 111T224 74T289 60Q366 60 408 118L466 63Q432 24 386 6T289 -12Q235 -12 190 6T114 57T65 135T47 234Q47
287 64 332T114 410T190 461T289 480Q341 480 387 462T469 406L407 351Z" />
<glyph unicode="d" glyph-name="d" horiz-adv-x="611" d="M463 83H461Q439 43 392 16T281 -12Q232 -12 189 6T115 58T65 136T47 234Q47 287 65 332T115 410T192 461T293 480Q344 480 386 459T461 400H463V756H541V0H463V83ZM463 234Q463 271 452 302T418 357T366
394T297 408Q259 408 229 395T176 358T143 303T131 234Q131 197 142 166T176 111T228 74T297 60Q335 60 365 73T418 110T451 165T463 234Z" />
<glyph unicode="e" glyph-name="e" horiz-adv-x="556" d="M492 85Q450 31 400 10T284 -12Q229 -12 185 7T111 60T64 138T47 234Q47 288 65 333T115 411T191 462T287 480Q336 480 377 464T447 416T493 339T509 235V210H131Q133 180 145 153T178 105T225 72T284
60Q335 60 370 78T433 131L492 85ZM425 276Q423 336 386 372T284 408Q219 408 179 372T131 276H425Z" />
<glyph unicode="f" glyph-name="f" horiz-adv-x="315" d="M114 402H12V468H114V573Q114 616 122 651T149 713T201 753T280 768Q295 768 312 765T340 756L329 686Q301 696 276 696Q246 696 229 686T204 657T194 612T192 556V468H306V402H192V0H114V402Z" />
<glyph unicode="g" glyph-name="g" horiz-adv-x="611" d="M541 21Q541 -107 476 -173T286 -240Q217 -240 162 -220T56 -151L112 -87Q149 -127 190 -147T286 -168Q338 -168 372 -153T427 -111T455 -50T463 21V81H461Q433 36 388 15T296 -6Q241 -6 195 12T116 62T65
138T47 234Q47 291 65 337T115 414T194 463T296 480Q320 480 344 475T390 458T431 429T461 388H463V468H541V21ZM131 234Q131 198 144 168T179 115T232 79T296 66Q336 66 367 80T419 117T452 171T463 236Q463 274 451 305T417 360T364 395T296 408Q259 408 229
395T177 358T143 303T131 234Z" />
<glyph unicode="h" glyph-name="h" horiz-adv-x="556" d="M74 756H152V403H154Q162 417 176 430T209 455T253 473T304 480Q350 480 383 466T439 427T471 367T482 289V0H404V281Q404 340 378 374T297 408Q259 408 232 395T187 358T161 301T152 228V0H74V756Z" />
<glyph unicode="i" glyph-name="i" horiz-adv-x="240" d="M81 468H159V0H81V468ZM63 651Q63 674 79 691T120 708Q144 708 160 691T177 651Q177 626 161 610T120 594Q95 594 79 610T63 651Z" />
<glyph unicode="j" glyph-name="j" horiz-adv-x="240" d="M159 -105Q159 -123 154 -146T133 -190T91 -225T20 -240Q6 -240 -7 -238T-34 -230L-25 -162Q-6 -168 13 -168Q35 -168 48 -160T69 -139T78 -107T81 -69V468H159V-105ZM63 651Q63 674 79 691T120 708Q144
708 160 691T177 651Q177 626 161 610T120 594Q95 594 79 610T63 651Z" />
<glyph unicode="k" glyph-name="k" horiz-adv-x="500" d="M74 756H152V262L365 468H476L250 255L499 0H384L152 246V0H74V756Z" />
<glyph unicode="l" glyph-name="l" horiz-adv-x="240" d="M81 756H159V0H81V756Z" />
<glyph unicode="m" glyph-name="m" horiz-adv-x="852" d="M74 357Q74 389 72 417T70 468H144Q144 449 145 430T146 391H148Q156 408 170 424T205 452T250 472T304 480Q342 480 367 471T410 448T436 419T452 391Q478 433 512 456T600 480Q650 480 684 467T739 428T769
366T778 284V0H700V280Q700 304 695 327T677 368T642 397T586 408Q561 408 539 398T501 370T475 327T465 270V0H387V265Q387 343 366 375T297 408Q259 408 232 395T187 358T161 301T152 228V0H74V357Z" />
<glyph unicode="n" glyph-name="n" horiz-adv-x="556" d="M74 357Q74 389 72 417T70 468H144Q144 449 145 430T146 391H148Q156 408 170 424T205 452T250 472T304 480Q350 480 383 466T439 427T471 367T482 289V0H404V281Q404 340 378 374T297 408Q259 408 232
395T187 358T161 301T152 228V0H74V357Z" />
<glyph unicode="o" glyph-name="o" horiz-adv-x="594" d="M47 234Q47 289 66 334T118 411T197 462T297 480Q351 480 397 462T476 412T528 334T547 234Q547 179 528 134T476 57T397 6T297 -12Q243 -12 197 6T118 56T66 134T47 234ZM131 234Q131 197 142 166T176
111T228 74T297 60Q335 60 365 73T418 110T451 165T463 234Q463 271 452 302T418 357T366 394T297 408Q259 408 229 395T176 358T143 303T131 234Z" />
<glyph unicode="p" glyph-name="p" horiz-adv-x="611" d="M70 468H148V400H150Q182 438 224 459T318 480Q373 480 418 462T496 410T546 332T564 234Q564 181 546 136T497 58T422 7T330 -12Q267 -12 220 15T150 83H148V-228H70V468ZM148 234Q148 197 159 166T193
111T245 74T314 60Q352 60 382 73T435 110T468 165T480 234Q480 271 469 302T435 357T383 394T314 408Q276 408 246 395T193 358T160 303T148 234Z" />
<glyph unicode="q" glyph-name="q" horiz-adv-x="611" d="M541 -228H463V68H461Q429 30 387 9T293 -12Q238 -12 193 6T115 58T65 136T47 234Q47 286 65 331T114 409T189 461T281 480Q344 480 391 453T461 385H463V468H541V-228ZM463 234Q463 271 452 302T418 357T366
394T297 408Q259 408 229 395T176 358T143 303T131 234Q131 197 142 166T176 111T228 74T297 60Q335 60 365 73T418 110T451 165T463 234Z" />
<glyph unicode="r" glyph-name="r" horiz-adv-x="352" d="M74 357Q74 389 72 417T70 468H144Q144 449 145 430T146 391H148Q156 408 170 424T205 452T250 472T304 480Q312 480 320 479T336 475L331 396Q311 402 289 402Q217 402 185 356T152 228V0H74V357Z" />
<glyph unicode="s" glyph-name="s" horiz-adv-x="426" d="M84 123Q107 94 134 77T204 60Q222 60 240 64T274 77T298 99T307 132Q307 151 299 163T276 183T244 197T207 206Q174 213 144 222T92 245T56 283T42 342Q42 376 57 402T97 445T153 471T217 480Q267 480
309 460T376 395L311 352Q296 377 272 392T212 408Q196 408 180 404T150 392T129 372T120 343Q120 328 129 318T155 299T193 285T238 275Q269 269 297 260T346 234T379 194T391 135Q391 95 375 67T333 22T273 -4T204 -12Q144 -12 101 6T22 75L84 123Z" />
<glyph unicode="t" glyph-name="t" horiz-adv-x="352" d="M330 402H192V168Q192 145 193 126T201 92T222 69T262 60Q279 60 297 64T331 76L334 5Q314 -4 290 -8T243 -12Q201 -12 176 -1T137 30T119 79T114 145V402H12V468H114V601H192V468H330V402Z" />
<glyph unicode="u" glyph-name="u" horiz-adv-x="556" d="M482 111Q482 79 484 51T486 0H412Q412 19 411 38T410 77H408Q400 60 386 44T351 16T306 -4T252 -12Q206 -12 173 2T117 41T85 101T74 179V468H152V187Q152 128 178 94T259 60Q297 60 324 73T369 110T395
167T404 240V468H482V111Z" />
<glyph unicode="v" glyph-name="v" horiz-adv-x="482" d="M287 0H201L10 468H101L247 101H249L388 468H472L287 0Z" />
<glyph unicode="w" glyph-name="w" horiz-adv-x="741" d="M576 0H499L366 360H364L246 0H166L14 468H100L207 108H209L330 468H412L535 108H537L643 468H727L576 0Z" />
<glyph unicode="x" glyph-name="x" horiz-adv-x="500" d="M195 252L27 468H129L253 300L370 468H465L304 252L497 0H394L246 202L100 0H3L195 252Z" />
<glyph unicode="y" glyph-name="y" horiz-adv-x="482" d="M246 -107Q234 -137 222 -161T192 -203T150 -230T90 -240Q73 -240 55 -238T20 -228L30 -160Q42 -165 55 -166T85 -168Q123 -168 141 -147T172 -91L204 -3L10 468H101L246 101H248L387 468H472L246 -107Z" />
<glyph unicode="z" glyph-name="z" horiz-adv-x="444" d="M30 61L305 402H42V468H407V408L132 66H414V0H30V61Z" />
<glyph unicode="{" glyph-name="braceleft" horiz-adv-x="333" d="M294 672H240Q224 672 215 666T200 648T193 622T191 593V417Q191 383 181 360T157 321T129 299T105 289V287Q114 286 128 280T157 259T181 220T191 158V-17Q191 -32 192 -46T199 -71T214 -89T240
-96H294V-156H224Q205 -156 187 -148T153 -124T129 -85T119 -31V144Q119 171 112 192T92 228T65 250T33 258V318Q49 318 64 326T92 348T111 384T119 431V607Q119 637 129 660T154 700T187 724T224 732H294V672Z" />
<glyph unicode="|" glyph-name="bar" horiz-adv-x="222" d="M144 750V-250H78V750H144Z" />
<glyph unicode="}" glyph-name="braceright" horiz-adv-x="333" d="M39 732H109Q127 732 145 724T179 700T204 661T214 607V431Q214 405 221 384T241 349T268 326T300 318V258Q284 258 269 251T241 228T222 192T214 144V-31Q214 -61 205 -84T180 -124T147 -148T109
-156H39V-96H93Q109 -96 118 -89T133 -71T140 -46T142 -17V158Q142 195 152 219T176 258T204 279T228 287V289Q219 291 205 298T176 321T152 359T142 417V593Q142 608 140 622T133 647T119 665T93 672H39V732Z" />
<glyph unicode="~" glyph-name="asciitilde" horiz-adv-x="666" d="M563 324Q551 308 539 293T512 265T479 244T437 236Q410 236 385 245T335 266Q306 279 279 291T220 304Q187 304 168 282T136 234L103 282Q114 298 126 313T153 341T186 362T228 370Q255 370
280 361T330 340Q359 327 386 315T445 302Q478 302 497 324T530 372L563 324Z" />
<glyph unicode="&#x8e;" glyph-name="Zcaron" horiz-adv-x="574" d="M333 758H242L131 902H212L290 800L367 902H443L333 758ZM29 75L438 630H35V708H540V636L131 78H545V0H29V75Z" />
<glyph unicode="&#x9e;" glyph-name="zcaron" horiz-adv-x="444" d="M268 580H177L66 724H147L225 622L302 724H378L268 580ZM30 61L305 402H42V468H407V408L132 66H414V0H30V61Z" />
<glyph unicode="&#xa0;" glyph-name="nbspace" horiz-adv-x="278" />
<glyph unicode="&#xa1;" glyph-name="exclamdown" horiz-adv-x="278" d="M97 288H181V-222H97V288ZM139 372Q114 372 97 389T79 432Q79 457 97 474T139 492Q162 492 180 475T199 432Q199 407 182 390T139 372Z" />
<glyph unicode="&#xa2;" glyph-name="cent" horiz-adv-x="556" d="M277 406Q214 394 183 346T151 234Q151 170 185 123T277 61V406ZM277 -12Q229 -6 191 14T125 67T82 141T67 234Q67 283 82 325T124 400T191 452T277 477V546H325V480Q373 478 415 460T489 406L427
351Q385 402 325 408V60Q389 64 428 118L486 63Q455 27 414 9T325 -12V-78H277V-12Z" />
<glyph unicode="&#xa3;" glyph-name="sterling" horiz-adv-x="556" d="M57 78H165V330H69V396H165V476Q165 541 181 587T226 663T294 706T379 720Q424 720 466 705T540 658L485 599Q462 622 436 635T377 648Q340 648 316 636T276 600T255 545T249 474V396H411V330H249V78H495V0H57V78Z"
/>
<glyph unicode="&#xa4;" glyph-name="currency" horiz-adv-x="556" d="M106 354Q106 319 119 287T156 230T211 191T278 176Q313 176 344 190T399 230T436 287T450 354Q450 390 437 422T400 479T345 518T278 532Q243 532 212 518T157 480T120 423T106 354ZM82 203Q28
271 28 354Q28 441 82 506L28 560L72 604L126 551Q159 577 197 590T278 604Q320 604 358 591T430 551L484 604L528 560L474 506Q528 441 528 354Q528 271 474 203L528 148L484 104L430 159Q397 133 359 119T278 104Q236 104 198 118T126 159L72 104L28 148L82 203Z"
/>
<glyph unicode="&#xa5;" glyph-name="yen" horiz-adv-x="556" d="M236 174H77V234H236V305L227 321H77V381H191L0 708H100L278 381L456 708H556L365 381H479V321H329L320 305V234H479V174H320V0H236V174Z" />
<glyph unicode="&#xa6;" glyph-name="brokenbar" horiz-adv-x="222" d="M144 675V325H78V675H144ZM144 175V-175H78V175H144Z" />
<glyph unicode="&#xa7;" glyph-name="section" horiz-adv-x="556" d="M388 591Q376 624 347 639T285 654Q266 654 247 649T213 634T189 607T180 568Q180 519 224 496L322 447Q348 435 375 420T424 386T460 341T474 282Q474 236 450 203T388 149Q420 128 438 98T457
26Q457 -17 440 -49T394 -102T328 -133T253 -144Q188 -144 135 -115T56 -21L133 15Q147 -31 180 -51T259 -72Q280 -72 299 -67T334 -51T358 -22T367 20Q367 41 358 56T333 83T301 103T267 120L145 184Q110 202 91 234T72 306Q72 359 100 392T173 446Q138 466 117
494T96 564Q96 604 112 634T156 685T217 715T288 726Q314 726 340 721T389 704T432 675T463 632L388 591ZM325 183Q350 194 370 217T390 270Q390 291 381 307T357 336T326 358T293 376L235 405Q220 399 205 392T178 375T158 352T150 319Q150 299 158 285T178 260T205
241T236 226L325 183Z" />
<glyph unicode="&#xa8;" glyph-name="dieresis" horiz-adv-x="240" d="M21 684Q44 684 59 668T75 630Q75 607 60 592T21 576Q-2 576 -17 591T-33 630Q-33 652 -18 668T21 684ZM219 684Q242 684 257 668T273 630Q273 607 258 592T219 576Q196 576 181 591T165 630Q165
652 180 668T219 684Z" />
<glyph unicode="&#xa9;" glyph-name="copyright" horiz-adv-x="800" d="M600 282Q584 210 534 168T415 126Q364 126 323 143T253 191T209 263T193 354Q193 403 208 445T251 517T320 564T412 581Q447 581 478 572T535 543T576 496T599 430H538Q530 472 497 499T413
527Q376 527 347 514T299 477T269 423T259 354Q259 319 270 288T301 232T350 194T415 180Q465 180 498 209T538 282H600ZM28 354Q28 433 57 501T138 619T256 697T400 726Q476 726 543 698T662 620T742 502T772 354Q772 274 743 206T662 89T544 11T400 -18Q324 -18
257 10T138 88T58 206T28 354ZM94 354Q94 286 118 228T183 128T280 61T400 36Q464 36 519 60T616 127T682 228T706 354Q706 421 682 479T617 580T520 647T400 672Q336 672 280 648T183 581T118 480T94 354Z" />
<glyph unicode="&#xaa;" glyph-name="ordfeminine" horiz-adv-x="337" d="M300 473Q300 462 301 452T304 430H243Q240 454 240 475H238Q224 447 199 436T138 424Q92 424 63 445T33 512Q33 547 52 566T100 594T160 605T217 607H240V621Q240 635 222 650T167 666Q138
666 114 656T78 635L47 677Q70 699 102 709T167 720Q239 720 269 691T300 601V473ZM192 559Q180 559 164 559T134 554T109 540T99 513Q99 496 115 487T156 478Q197 478 218 499T240 542V559H192Z" />
<glyph unicode="&#xab;" glyph-name="guillemotleft" horiz-adv-x="500" d="M139 240L256 62L201 26L58 240L201 454L256 418L139 240ZM325 240L442 62L387 26L244 240L387 454L442 418L325 240Z" />
<glyph unicode="&#xac;" glyph-name="logicalnot" horiz-adv-x="666" d="M72 414H594V136H528V348H72V414Z" />
<glyph unicode="&#xad;" glyph-name="uni00AD" horiz-adv-x="333" d="M44 276H289V204H44V276Z" />
<glyph unicode="&#xae;" glyph-name="registered" horiz-adv-x="800" d="M258 572H422Q574 572 574 448Q574 389 541 362T459 329L584 137H513L395 324H324V137H258V572ZM324 378H392Q414 378 435 379T472 388T498 410T508 451Q508 473 499 486T476 507T445 516T411
518H324V378ZM28 354Q28 433 57 501T138 619T256 697T400 726Q476 726 543 698T662 620T742 502T772 354Q772 274 743 206T662 89T544 11T400 -18Q324 -18 257 10T138 88T58 206T28 354ZM94 354Q94 286 118 228T183 128T280 61T400 36Q464 36 519 60T616 127T682
228T706 354Q706 421 682 479T617 580T520 647T400 672Q336 672 280 648T183 581T118 480T94 354Z" />
<glyph unicode="&#xaf;" glyph-name="overscore" horiz-adv-x="240" d="M258 600H-18V660H258V600Z" />
<glyph unicode="&#xb0;" glyph-name="degree" horiz-adv-x="400" d="M57 577Q57 607 68 633T98 678T144 709T200 720Q230 720 256 709T301 679T332 633T343 577Q343 547 332 521T302 476T256 445T200 434Q170 434 144 445T99 475T68 521T57 577ZM111 577Q111 562
117 546T135 517T163 496T200 488Q220 488 236 496T264 517T282 546T289 577Q289 592 283 608T265 637T237 658T200 666Q180 666 164 658T136 637T118 608T111 577Z" />
<glyph unicode="&#xb1;" glyph-name="plusminus" horiz-adv-x="666" d="M72 396H300V564H366V396H594V330H366V162H300V330H72V396ZM72 108H594V42H72V108Z" />
<glyph unicode="&#xb2;" glyph-name="twosuperior" horiz-adv-x="361" d="M32 347L200 498Q228 523 243 543T259 595Q259 628 238 647T187 666Q155 666 133 648T104 599L41 604Q50 664 89 692T185 720Q213 720 238 713T283 690T314 651T325 595Q325 569 318 549T298
512T269 479T236 449L116 345V343H329V289H32V347Z" />
<glyph unicode="&#xb3;" glyph-name="threesuperior" horiz-adv-x="361" d="M140 538H157Q169 538 185 540T215 550T239 570T249 607Q249 639 228 652T178 666Q152 666 131 657T97 624L42 649Q61 687 97 703T178 720Q205 720 230 713T274 692T304 657T315 609Q315
576 293 549T236 512V510Q281 504 305 474T330 404Q330 374 318 352T285 314T237 291T178 283Q126 283 87 303T31 375L85 398Q89 388 96 377T114 357T141 343T178 337Q211 337 237 354T264 407Q264 431 254 446T228 469T193 481T156 484H140V538Z" />
<glyph unicode="&#xb4;" glyph-name="acute" horiz-adv-x="240" d="M155 708H265L122 564H51L155 708Z" />
<glyph unicode="&#xb5;" glyph-name="mu" horiz-adv-x="556" d="M482 111Q482 79 484 51T486 0H412Q412 19 411 38T410 77H408Q400 60 386 44T351 16T306 -4T252 -12Q220 -12 198 -7T152 13V-228H74V468H152V187Q152 128 178 94T259 60Q297 60 324 73T369 110T395
167T404 240V468H482V111Z" />
<glyph unicode="&#xb6;" glyph-name="paragraph" horiz-adv-x="600" d="M292 316Q246 316 208 330T142 370T99 429T83 502Q83 600 144 654T311 708H554V-126H482V642H364V-126H292V316Z" />
<glyph unicode="&#xb7;" glyph-name="middot" horiz-adv-x="278" d="M139 369Q164 369 181 352T199 309Q199 284 181 267T139 249Q116 249 98 266T79 309Q79 334 96 351T139 369Z" />
<glyph unicode="&#xb8;" glyph-name="cedilla" horiz-adv-x="240" d="M113 -64Q120 -63 128 -62T148 -60Q161 -60 175 -64T201 -76T220 -98T228 -129Q228 -153 218 -170T190 -197T152 -212T111 -217Q85 -217 60 -212T12 -196L29 -159Q64 -175 101 -175Q111 -175
121 -173T141 -167T156 -154T162 -134Q162 -113 145 -105T110 -96Q100 -96 90 -98T71 -104L51 -85L113 0H158L113 -64Z" />
<glyph unicode="&#xb9;" glyph-name="onesuperior" horiz-adv-x="361" d="M173 641H171L90 575L57 621L181 714H239V289H173V641Z" />
<glyph unicode="&#xba;" glyph-name="ordmasculine" horiz-adv-x="386" d="M30 573Q30 606 42 633T76 679T128 709T193 720Q228 720 258 710T309 680T343 633T356 573Q356 539 344 512T310 465T258 435T193 424Q158 424 128 434T76 464T42 511T30 573ZM96 573Q96
554 102 537T122 507T152 486T193 478Q215 478 233 486T264 507T283 537T290 573Q290 591 284 607T264 637T233 658T193 666Q170 666 153 658T122 637T103 608T96 573Z" />
<glyph unicode="&#xbb;" glyph-name="guillemotright" horiz-adv-x="500" d="M175 240L58 418L113 454L256 240L113 26L58 62L175 240ZM361 240L244 418L299 454L442 240L299 26L244 62L361 240Z" />
<glyph unicode="&#xbc;" glyph-name="onequarter" horiz-adv-x="834" d="M593 740L648 708L204 -32L149 0L593 740ZM155 642H153L72 575L39 621L163 714H221V289H155V642ZM739 144H795V90H739V0H673V90H478V153L661 425H739V144ZM673 347H671L538 144H673V347Z" />
<glyph unicode="&#xbd;" glyph-name="onehalf" horiz-adv-x="834" d="M576 740L631 708L187 -32L132 0L576 740ZM149 642H147L66 575L33 621L157 714H215V289H149V642ZM504 58L672 209Q700 234 715 254T731 306Q731 339 710 358T659 377Q627 377 605 359T576 310L513
315Q522 375 561 403T657 431Q685 431 710 424T755 401T786 362T797 306Q797 280 790 260T770 223T741 190T708 160L588 56V54H801V0H504V58Z" />
<glyph unicode="&#xbe;" glyph-name="threequarters" horiz-adv-x="834" d="M632 740L687 708L243 -32L188 0L632 740ZM135 538H151Q164 538 180 540T210 550T234 570T244 607Q244 639 223 652T173 666Q147 666 126 657T92 624L37 649Q56 687 92 703T173 720Q200
720 225 713T269 692T299 657T310 609Q310 576 288 549T231 512V510Q276 504 300 474T325 404Q325 374 313 352T280 314T232 291T173 283Q121 283 82 303T25 375L80 398Q84 388 91 377T109 357T136 343T173 337Q206 337 232 354T259 407Q259 431 249 446T223 469T188
481T151 484H135V538ZM753 144H809V90H753V0H687V90H492V153L675 425H753V144ZM687 347H685L552 146V144H687V347Z" />
<glyph unicode="&#xbf;" glyph-name="questiondown" horiz-adv-x="482" d="M455 -69Q448 -110 430 -142T383 -195T319 -228T242 -240Q201 -240 166 -229T104 -195T62 -139T47 -62Q47 -29 56 -3T81 46T117 89T161 131Q177 146 186 157T201 180T207 206T209 242V288H293V225Q293
197 290 179T278 147T257 118T224 84Q209 68 194 53T166 20T145 -16T137 -59Q137 -107 165 -137T243 -168Q294 -168 325 -138T365 -59L455 -69ZM251 372Q226 372 209 389T191 432Q191 457 209 474T251 492Q274 492 292 475T311 432Q311 407 294 390T251 372Z" />
<glyph unicode="&#xc0;" glyph-name="Agrave" horiz-adv-x="704" d="M421 758H350L207 902H317L421 758ZM318 708H397L698 0H600L528 174H174L101 0H6L318 708ZM356 600H354L207 252H496L356 600Z" />
<glyph unicode="&#xc1;" glyph-name="Aacute" horiz-adv-x="704" d="M387 902H497L354 758H283L387 902ZM318 708H397L698 0H600L528 174H174L101 0H6L318 708ZM356 600H354L207 252H496L356 600Z" />
<glyph unicode="&#xc2;" glyph-name="Acircumflex" horiz-adv-x="704" d="M306 902H397L509 758H428L349 860L271 758H195L306 902ZM318 708H397L698 0H600L528 174H174L101 0H6L318 708ZM356 600H354L207 252H496L356 600Z" />
<glyph unicode="&#xc3;" glyph-name="Atilde" horiz-adv-x="704" d="M185 770Q188 789 195 808T215 841T245 865T285 874Q308 874 328 867T369 851Q384 845 395 840T423 834Q443 834 454 847T471 878H519Q516 859 510 841T492 807T464 783T426 774Q405 774 385
780T345 795Q330 801 313 807T279 814Q260 814 249 801T233 770H185ZM318 708H397L698 0H600L528 174H174L101 0H6L318 708ZM356 600H354L207 252H496L356 600Z" />
<glyph unicode="&#xc4;" glyph-name="Adieresis" horiz-adv-x="704" d="M253 878Q276 878 291 862T307 824Q307 801 292 786T253 770Q230 770 215 785T199 824Q199 846 214 862T253 878ZM451 878Q474 878 489 862T505 824Q505 801 490 786T451 770Q428 770 413
785T397 824Q397 846 412 862T451 878ZM318 708H397L698 0H600L528 174H174L101 0H6L318 708ZM356 600H354L207 252H496L356 600Z" />
<glyph unicode="&#xc5;" glyph-name="Aring" horiz-adv-x="704" d="M253 829Q253 849 260 867T281 898T312 920T352 928Q396 928 423 899T451 829Q451 788 423 759T352 730Q309 730 281 759T253 829ZM295 829Q295 804 312 788T352 772Q374 772 391 788T409 829Q409
853 392 869T352 886Q330 886 313 870T295 829ZM318 708H397L698 0H600L528 174H174L101 0H6L318 708ZM356 600H354L207 252H496L356 600Z" />
<glyph unicode="&#xc6;" glyph-name="AE" horiz-adv-x="944" d="M450 708H885V630H591V408H867V330H591V78H897V0H507V192H214L91 0H-10L450 708ZM507 630H495L264 270H507V630Z" />
<glyph unicode="&#xc7;" glyph-name="Ccedilla" horiz-adv-x="704" d="M584 562Q552 605 505 626T407 648Q348 648 299 624T213 560T157 466T137 354Q137 292 157 239T212 146T297 83T407 60Q472 60 523 85T612 159L675 106Q627 42 560 12T407 -18L375 -64Q382
-63 390 -62T410 -60Q423 -60 437 -64T463 -76T482 -98T490 -129Q490 -153 480 -170T452 -197T414 -212T373 -217Q347 -217 322 -212T274 -196L291 -159Q326 -175 363 -175Q373 -175 383 -173T403 -167T418 -154T424 -134Q424 -113 407 -105T372 -96Q362 -96 352
-98T333 -104L313 -85L364 -15Q296 -8 238 22T138 101T71 214T47 354Q47 432 73 500T148 618T262 697T407 726Q479 726 545 700T657 615L584 562Z" />
<glyph unicode="&#xc8;" glyph-name="Egrave" horiz-adv-x="593" d="M366 758H295L152 902H262L366 758ZM88 708H533V630H172V408H509V330H172V78H551V0H88V708Z" />
<glyph unicode="&#xc9;" glyph-name="Eacute" horiz-adv-x="593" d="M332 902H442L299 758H228L332 902ZM88 708H533V630H172V408H509V330H172V78H551V0H88V708Z" />
<glyph unicode="&#xca;" glyph-name="Ecircumflex" horiz-adv-x="593" d="M251 902H342L454 758H373L294 860L216 758H140L251 902ZM88 708H533V630H172V408H509V330H172V78H551V0H88V708Z" />
<glyph unicode="&#xcb;" glyph-name="Edieresis" horiz-adv-x="593" d="M198 878Q221 878 236 862T252 824Q252 801 237 786T198 770Q175 770 160 785T144 824Q144 846 159 862T198 878ZM396 878Q419 878 434 862T450 824Q450 801 435 786T396 770Q373 770 358
785T342 824Q342 846 357 862T396 878ZM88 708H533V630H172V408H509V330H172V78H551V0H88V708Z" />
<glyph unicode="&#xcc;" glyph-name="Igrave" horiz-adv-x="260" d="M199 758H128L-15 902H95L199 758ZM88 708H172V0H88V708Z" />
<glyph unicode="&#xcd;" glyph-name="Iacute" horiz-adv-x="260" d="M165 902H275L132 758H61L165 902ZM88 708H172V0H88V708Z" />
<glyph unicode="&#xce;" glyph-name="Icircumflex" horiz-adv-x="260" d="M84 902H175L287 758H206L127 860L49 758H-27L84 902ZM88 708H172V0H88V708Z" />
<glyph unicode="&#xcf;" glyph-name="Idieresis" horiz-adv-x="260" d="M31 878Q54 878 69 862T85 824Q85 801 70 786T31 770Q8 770 -7 785T-23 824Q-23 846 -8 862T31 878ZM229 878Q252 878 267 862T283 824Q283 801 268 786T229 770Q206 770 191 785T175 824Q175
846 190 862T229 878ZM88 708H172V0H88V708Z" />
<glyph unicode="&#xd0;" glyph-name="Eth" horiz-adv-x="741" d="M75 708H347Q382 708 421 700T498 675T572 629T635 562T678 471T694 354Q694 289 678 238T635 147T573 79T499 34T421 8T347 0H75V336H3V402H75V708ZM159 402H411V336H159V78H319Q380 78 432 94T522
143T582 229T604 354Q604 427 582 479T522 564T432 614T319 630H159V402Z" />
<glyph unicode="&#xd1;" glyph-name="Ntilde" horiz-adv-x="778" d="M222 770Q225 789 232 808T252 841T282 865T322 874Q345 874 365 867T406 851Q421 845 432 840T460 834Q480 834 491 847T508 878H556Q553 859 547 841T529 807T501 783T463 774Q442 774 422
780T382 795Q367 801 350 807T316 814Q297 814 286 801T270 770H222ZM88 708H194L604 120H606V708H690V0H584L174 588H172V0H88V708Z" />
<glyph unicode="&#xd2;" glyph-name="Ograve" horiz-adv-x="834" d="M486 758H415L272 902H382L486 758ZM417 -18Q336 -18 269 10T152 87T75 205T47 354Q47 434 74 502T151 620T268 698T417 726Q498 726 565 698T682 621T759 503T787 354Q787 274 760 206T683
88T566 10T417 -18ZM417 60Q479 60 530 83T619 146T676 239T697 354Q697 415 677 468T619 562T531 625T417 648Q355 648 304 625T215 562T158 469T137 354Q137 293 157 240T215 146T303 83T417 60Z" />
<glyph unicode="&#xd3;" glyph-name="Oacute" horiz-adv-x="834" d="M452 902H562L419 758H348L452 902ZM417 -18Q336 -18 269 10T152 87T75 205T47 354Q47 434 74 502T151 620T268 698T417 726Q498 726 565 698T682 621T759 503T787 354Q787 274 760 206T683
88T566 10T417 -18ZM417 60Q479 60 530 83T619 146T676 239T697 354Q697 415 677 468T619 562T531 625T417 648Q355 648 304 625T215 562T158 469T137 354Q137 293 157 240T215 146T303 83T417 60Z" />
<glyph unicode="&#xd4;" glyph-name="Ocircumflex" horiz-adv-x="834" d="M371 902H462L574 758H493L414 860L336 758H260L371 902ZM417 -18Q336 -18 269 10T152 87T75 205T47 354Q47 434 74 502T151 620T268 698T417 726Q498 726 565 698T682 621T759 503T787
354Q787 274 760 206T683 88T566 10T417 -18ZM417 60Q479 60 530 83T619 146T676 239T697 354Q697 415 677 468T619 562T531 625T417 648Q355 648 304 625T215 562T158 469T137 354Q137 293 157 240T215 146T303 83T417 60Z" />
<glyph unicode="&#xd5;" glyph-name="Otilde" horiz-adv-x="834" d="M250 770Q253 789 260 808T280 841T310 865T350 874Q373 874 393 867T434 851Q449 845 460 840T488 834Q508 834 519 847T536 878H584Q581 859 575 841T557 807T529 783T491 774Q470 774 450
780T410 795Q395 801 378 807T344 814Q325 814 314 801T298 770H250ZM417 -18Q336 -18 269 10T152 87T75 205T47 354Q47 434 74 502T151 620T268 698T417 726Q498 726 565 698T682 621T759 503T787 354Q787 274 760 206T683 88T566 10T417 -18ZM417 60Q479 60 530
83T619 146T676 239T697 354Q697 415 677 468T619 562T531 625T417 648Q355 648 304 625T215 562T158 469T137 354Q137 293 157 240T215 146T303 83T417 60Z" />
<glyph unicode="&#xd6;" glyph-name="Odieresis" horiz-adv-x="834" d="M318 878Q341 878 356 862T372 824Q372 801 357 786T318 770Q295 770 280 785T264 824Q264 846 279 862T318 878ZM516 878Q539 878 554 862T570 824Q570 801 555 786T516 770Q493 770 478
785T462 824Q462 846 477 862T516 878ZM417 -18Q336 -18 269 10T152 87T75 205T47 354Q47 434 74 502T151 620T268 698T417 726Q498 726 565 698T682 621T759 503T787 354Q787 274 760 206T683 88T566 10T417 -18ZM417 60Q479 60 530 83T619 146T676 239T697 354Q697
415 677 468T619 562T531 625T417 648Q355 648 304 625T215 562T158 469T137 354Q137 293 157 240T215 146T303 83T417 60Z" />
<glyph unicode="&#xd7;" glyph-name="multiply" horiz-adv-x="666" d="M333 351L526 544L574 497L380 303L574 111L526 62L333 256L140 62L92 109L285 303L92 495L141 544L333 351Z" />
<glyph unicode="&#xd8;" glyph-name="Oslash" horiz-adv-x="834" d="M239 124Q274 94 319 77T417 60Q479 60 530 83T619 146T676 239T697 354Q697 411 680 461T630 550L239 124ZM590 589Q555 617 512 632T417 648Q355 648 304 625T215 562T158 469T137 354Q137
299 153 251T200 164L590 589ZM141 99Q96 149 72 213T47 354Q47 434 74 502T151 620T268 698T417 726Q484 726 541 707T647 651L726 738L768 700L689 614Q735 565 761 499T787 354Q787 274 760 206T683 88T566 10T417 -18Q347 -18 288 2T181 61L100 -27L60 11L141
99Z" />
<glyph unicode="&#xd9;" glyph-name="Ugrave" horiz-adv-x="704" d="M421 758H350L207 902H317L421 758ZM619 270Q619 212 605 160T559 69T476 6T352 -18Q279 -18 228 5T146 68T100 160T85 270V708H169V282Q169 239 178 199T208 128T264 79T352 60Q405 60 440
78T496 128T526 199T535 282V708H619V270Z" />
<glyph unicode="&#xda;" glyph-name="Uacute" horiz-adv-x="704" d="M387 902H497L354 758H283L387 902ZM619 270Q619 212 605 160T559 69T476 6T352 -18Q279 -18 228 5T146 68T100 160T85 270V708H169V282Q169 239 178 199T208 128T264 79T352 60Q405 60 440
78T496 128T526 199T535 282V708H619V270Z" />
<glyph unicode="&#xdb;" glyph-name="Ucircumflex" horiz-adv-x="704" d="M306 902H397L509 758H428L349 860L271 758H195L306 902ZM619 270Q619 212 605 160T559 69T476 6T352 -18Q279 -18 228 5T146 68T100 160T85 270V708H169V282Q169 239 178 199T208 128T264
79T352 60Q405 60 440 78T496 128T526 199T535 282V708H619V270Z" />
<glyph unicode="&#xdc;" glyph-name="Udieresis" horiz-adv-x="704" d="M253 878Q276 878 291 862T307 824Q307 801 292 786T253 770Q230 770 215 785T199 824Q199 846 214 862T253 878ZM451 878Q474 878 489 862T505 824Q505 801 490 786T451 770Q428 770 413
785T397 824Q397 846 412 862T451 878ZM619 270Q619 212 605 160T559 69T476 6T352 -18Q279 -18 228 5T146 68T100 160T85 270V708H169V282Q169 239 178 199T208 128T264 79T352 60Q405 60 440 78T496 128T526 199T535 282V708H619V270Z" />
<glyph unicode="&#xdd;" glyph-name="Yacute" horiz-adv-x="594" d="M332 902H442L299 758H228L332 902ZM255 305L-9 708H98L297 388L502 708H603L339 305V0H255V305Z" />
<glyph unicode="&#xde;" glyph-name="Thorn" horiz-adv-x="593" d="M88 708H172V583H298Q347 583 391 574T470 542T525 482T546 389Q546 331 524 293T468 233T392 202T314 193H172V0H88V708ZM172 271H314Q377 271 416 299T456 388Q456 448 417 476T314 505H172V271Z" />
<glyph unicode="&#xdf;" glyph-name="germandbls" horiz-adv-x="593" d="M74 540Q74 586 86 627T124 699T192 749T293 768Q334 768 369 756T431 722T473 666T489 590Q489 533 461 492T379 432V430Q421 426 452 408T505 360T538 295T549 218Q549 165 531 123T481
50T405 4T310 -12Q294 -12 279 -10T248 -3V68Q271 60 300 60Q337 60 367 72T420 105T453 157T465 225Q465 265 452 296T416 350T360 383T288 395H265V461H287Q341 461 376 493T411 581Q411 635 376 665T289 696Q249 696 223 683T181 647T159 595T152 533V0H74V540Z"
/>
<glyph unicode="&#xe0;" glyph-name="agrave" horiz-adv-x="519" d="M329 580H258L115 724H225L329 580ZM68 408Q104 445 153 462T254 480Q358 480 404 431T450 282V81Q450 61 452 40T457 0H382Q378 16 378 35T377 70H375Q352 34 314 11T221 -12Q185 -12 154 -3T99
23T61 67T47 127Q47 185 77 218T151 267T247 287T342 291H372V305Q372 356 342 382T256 408Q218 408 182 396T117 357L68 408ZM294 225Q219 225 175 204T131 135Q131 91 160 73T234 54Q268 54 293 65T336 96T362 140T372 195V225H294Z" />
<glyph unicode="&#xe1;" glyph-name="aacute" horiz-adv-x="519" d="M295 724H405L262 580H191L295 724ZM68 408Q104 445 153 462T254 480Q358 480 404 431T450 282V81Q450 61 452 40T457 0H382Q378 16 378 35T377 70H375Q352 34 314 11T221 -12Q185 -12 154 -3T99
23T61 67T47 127Q47 185 77 218T151 267T247 287T342 291H372V305Q372 356 342 382T256 408Q218 408 182 396T117 357L68 408ZM294 225Q219 225 175 204T131 135Q131 91 160 73T234 54Q268 54 293 65T336 96T362 140T372 195V225H294Z" />
<glyph unicode="&#xe2;" glyph-name="acircumflex" horiz-adv-x="519" d="M214 724H305L417 580H336L257 682L179 580H103L214 724ZM68 408Q104 445 153 462T254 480Q358 480 404 431T450 282V81Q450 61 452 40T457 0H382Q378 16 378 35T377 70H375Q352 34 314
11T221 -12Q185 -12 154 -3T99 23T61 67T47 127Q47 185 77 218T151 267T247 287T342 291H372V305Q372 356 342 382T256 408Q218 408 182 396T117 357L68 408ZM294 225Q219 225 175 204T131 135Q131 91 160 73T234 54Q268 54 293 65T336 96T362 140T372 195V225H294Z"
/>
<glyph unicode="&#xe3;" glyph-name="atilde" horiz-adv-x="519" d="M93 592Q96 611 103 630T123 663T153 687T193 696Q216 696 236 689T277 673Q292 667 303 662T331 656Q351 656 362 669T379 700H427Q424 681 418 663T400 629T372 605T334 596Q313 596 293 602T253
617Q238 623 221 629T187 636Q168 636 157 623T141 592H93ZM68 408Q104 445 153 462T254 480Q358 480 404 431T450 282V81Q450 61 452 40T457 0H382Q378 16 378 35T377 70H375Q352 34 314 11T221 -12Q185 -12 154 -3T99 23T61 67T47 127Q47 185 77 218T151 267T247
287T342 291H372V305Q372 356 342 382T256 408Q218 408 182 396T117 357L68 408ZM294 225Q219 225 175 204T131 135Q131 91 160 73T234 54Q268 54 293 65T336 96T362 140T372 195V225H294Z" />
<glyph unicode="&#xe4;" glyph-name="adieresis" horiz-adv-x="519" d="M161 700Q184 700 199 684T215 646Q215 623 200 608T161 592Q138 592 123 607T107 646Q107 668 122 684T161 700ZM359 700Q382 700 397 684T413 646Q413 623 398 608T359 592Q336 592 321
607T305 646Q305 668 320 684T359 700ZM68 408Q104 445 153 462T254 480Q358 480 404 431T450 282V81Q450 61 452 40T457 0H382Q378 16 378 35T377 70H375Q352 34 314 11T221 -12Q185 -12 154 -3T99 23T61 67T47 127Q47 185 77 218T151 267T247 287T342 291H372V305Q372
356 342 382T256 408Q218 408 182 396T117 357L68 408ZM294 225Q219 225 175 204T131 135Q131 91 160 73T234 54Q268 54 293 65T336 96T362 140T372 195V225H294Z" />
<glyph unicode="&#xe5;" glyph-name="aring" horiz-adv-x="519" d="M161 661Q161 681 168 699T189 730T220 752T260 760Q304 760 331 731T359 661Q359 620 331 591T260 562Q217 562 189 591T161 661ZM203 661Q203 636 220 620T260 604Q282 604 299 620T317 661Q317
685 300 701T260 718Q238 718 221 702T203 661ZM68 408Q104 445 153 462T254 480Q358 480 404 431T450 282V81Q450 61 452 40T457 0H382Q378 16 378 35T377 70H375Q352 34 314 11T221 -12Q185 -12 154 -3T99 23T61 67T47 127Q47 185 77 218T151 267T247 287T342
291H372V305Q372 356 342 382T256 408Q218 408 182 396T117 357L68 408ZM294 225Q219 225 175 204T131 135Q131 91 160 73T234 54Q268 54 293 65T336 96T362 140T372 195V225H294Z" />
<glyph unicode="&#xe6;" glyph-name="ae" horiz-adv-x="852" d="M793 85Q751 31 701 10T585 -12Q551 -12 523 -3T472 20T433 53T407 89Q379 33 330 11T220 -12Q190 -12 159 -4T103 21T63 64T47 129Q47 177 69 206T126 250T202 271T281 276H377V288Q377 339 349
373T260 408Q217 408 186 397T123 362L73 414Q111 447 160 463T260 480Q308 480 352 463T422 401Q463 444 504 462T588 480Q637 480 678 464T748 416T794 339T810 235V210H449Q449 179 459 152T488 105T531 72T585 60Q636 60 671 78T734 131L793 85ZM260 210Q239
210 217 207T175 195T144 171T131 132Q131 112 140 99T166 77T201 64T240 60Q301 60 339 98T377 197V210H260ZM726 276Q724 336 687 372T585 408Q556 408 532 397T489 367T461 324T449 276H726Z" />
<glyph unicode="&#xe7;" glyph-name="ccedilla" horiz-adv-x="482" d="M407 351Q382 381 353 394T289 408Q250 408 220 395T171 357T141 302T131 234Q131 198 142 167T174 111T224 74T289 60Q366 60 408 118L466 63Q435 28 394 10T307 -10L269 -64Q276 -63 284
-62T304 -60Q317 -60 331 -64T357 -76T376 -98T384 -129Q384 -153 374 -170T346 -197T308 -212T267 -217Q241 -217 216 -212T168 -196L185 -159Q220 -175 257 -175Q267 -175 277 -173T297 -167T312 -154T318 -134Q318 -113 301 -105T266 -96Q256 -96 246 -98T227
-104L207 -85L262 -9Q213 -5 174 14T106 66T63 140T47 234Q47 287 64 332T114 410T190 461T289 480Q341 480 387 462T469 406L407 351Z" />
<glyph unicode="&#xe8;" glyph-name="egrave" horiz-adv-x="556" d="M347 580H276L133 724H243L347 580ZM492 85Q450 31 400 10T284 -12Q229 -12 185 7T111 60T64 138T47 234Q47 288 65 333T115 411T191 462T287 480Q336 480 377 464T447 416T493 339T509 235V210H131Q133
180 145 153T178 105T225 72T284 60Q335 60 370 78T433 131L492 85ZM425 276Q423 336 386 372T284 408Q219 408 179 372T131 276H425Z" />
<glyph unicode="&#xe9;" glyph-name="eacute" horiz-adv-x="556" d="M313 724H423L280 580H209L313 724ZM492 85Q450 31 400 10T284 -12Q229 -12 185 7T111 60T64 138T47 234Q47 288 65 333T115 411T191 462T287 480Q336 480 377 464T447 416T493 339T509 235V210H131Q133
180 145 153T178 105T225 72T284 60Q335 60 370 78T433 131L492 85ZM425 276Q423 336 386 372T284 408Q219 408 179 372T131 276H425Z" />
<glyph unicode="&#xea;" glyph-name="ecircumflex" horiz-adv-x="556" d="M232 724H323L435 580H354L275 682L197 580H121L232 724ZM492 85Q450 31 400 10T284 -12Q229 -12 185 7T111 60T64 138T47 234Q47 288 65 333T115 411T191 462T287 480Q336 480 377 464T447
416T493 339T509 235V210H131Q133 180 145 153T178 105T225 72T284 60Q335 60 370 78T433 131L492 85ZM425 276Q423 336 386 372T284 408Q219 408 179 372T131 276H425Z" />
<glyph unicode="&#xeb;" glyph-name="edieresis" horiz-adv-x="556" d="M179 700Q202 700 217 684T233 646Q233 623 218 608T179 592Q156 592 141 607T125 646Q125 668 140 684T179 700ZM377 700Q400 700 415 684T431 646Q431 623 416 608T377 592Q354 592 339
607T323 646Q323 668 338 684T377 700ZM492 85Q450 31 400 10T284 -12Q229 -12 185 7T111 60T64 138T47 234Q47 288 65 333T115 411T191 462T287 480Q336 480 377 464T447 416T493 339T509 235V210H131Q133 180 145 153T178 105T225 72T284 60Q335 60 370 78T433
131L492 85ZM425 276Q423 336 386 372T284 408Q219 408 179 372T131 276H425Z" />
<glyph unicode="&#xec;" glyph-name="igrave" horiz-adv-x="240" d="M189 580H118L-25 724H85L189 580ZM81 468H159V0H81V468Z" />
<glyph unicode="&#xed;" glyph-name="iacute" horiz-adv-x="240" d="M155 724H265L122 580H51L155 724ZM81 468H159V0H81V468Z" />
<glyph unicode="&#xee;" glyph-name="icircumflex" horiz-adv-x="240" d="M74 724H165L277 580H196L117 682L39 580H-37L74 724ZM81 468H159V0H81V468Z" />
<glyph unicode="&#xef;" glyph-name="idieresis" horiz-adv-x="240" d="M21 700Q44 700 59 684T75 646Q75 623 60 608T21 592Q-2 592 -17 607T-33 646Q-33 668 -18 684T21 700ZM219 700Q242 700 257 684T273 646Q273 623 258 608T219 592Q196 592 181 607T165
646Q165 668 180 684T219 700ZM81 468H159V0H81V468Z" />
<glyph unicode="&#xf0;" glyph-name="eth" horiz-adv-x="594" d="M234 663Q214 683 191 702T146 739L215 779Q237 761 261 740T306 699L413 753L459 714L348 658Q388 620 424 579T487 491T531 387T547 265Q547 204 532 153T485 66T407 9T297 -12Q243 -12 197 6T118
56T66 134T47 234Q47 289 66 334T118 411T197 462T297 480Q335 480 368 468T427 431L428 433Q400 485 361 532T277 623L170 569L128 610L234 663ZM131 234Q131 197 142 166T176 111T228 74T297 60Q335 60 365 73T418 110T451 165T463 234Q463 271 452 302T418 357T366
394T297 408Q259 408 229 395T176 358T143 303T131 234Z" />
<glyph unicode="&#xf1;" glyph-name="ntilde" horiz-adv-x="556" d="M111 592Q114 611 121 630T141 663T171 687T211 696Q234 696 254 689T295 673Q310 667 321 662T349 656Q369 656 380 669T397 700H445Q442 681 436 663T418 629T390 605T352 596Q331 596 311
602T271 617Q256 623 239 629T205 636Q186 636 175 623T159 592H111ZM74 357Q74 389 72 417T70 468H144Q144 449 145 430T146 391H148Q156 408 170 424T205 452T250 472T304 480Q350 480 383 466T439 427T471 367T482 289V0H404V281Q404 340 378 374T297 408Q259
408 232 395T187 358T161 301T152 228V0H74V357Z" />
<glyph unicode="&#xf2;" glyph-name="ograve" horiz-adv-x="594" d="M366 580H295L152 724H262L366 580ZM47 234Q47 289 66 334T118 411T197 462T297 480Q351 480 397 462T476 412T528 334T547 234Q547 179 528 134T476 57T397 6T297 -12Q243 -12 197 6T118 56T66
134T47 234ZM131 234Q131 197 142 166T176 111T228 74T297 60Q335 60 365 73T418 110T451 165T463 234Q463 271 452 302T418 357T366 394T297 408Q259 408 229 395T176 358T143 303T131 234Z" />
<glyph unicode="&#xf3;" glyph-name="oacute" horiz-adv-x="594" d="M332 724H442L299 580H228L332 724ZM47 234Q47 289 66 334T118 411T197 462T297 480Q351 480 397 462T476 412T528 334T547 234Q547 179 528 134T476 57T397 6T297 -12Q243 -12 197 6T118 56T66
134T47 234ZM131 234Q131 197 142 166T176 111T228 74T297 60Q335 60 365 73T418 110T451 165T463 234Q463 271 452 302T418 357T366 394T297 408Q259 408 229 395T176 358T143 303T131 234Z" />
<glyph unicode="&#xf4;" glyph-name="ocircumflex" horiz-adv-x="594" d="M251 724H342L454 580H373L294 682L216 580H140L251 724ZM47 234Q47 289 66 334T118 411T197 462T297 480Q351 480 397 462T476 412T528 334T547 234Q547 179 528 134T476 57T397 6T297
-12Q243 -12 197 6T118 56T66 134T47 234ZM131 234Q131 197 142 166T176 111T228 74T297 60Q335 60 365 73T418 110T451 165T463 234Q463 271 452 302T418 357T366 394T297 408Q259 408 229 395T176 358T143 303T131 234Z" />
<glyph unicode="&#xf5;" glyph-name="otilde" horiz-adv-x="594" d="M130 592Q133 611 140 630T160 663T190 687T230 696Q253 696 273 689T314 673Q329 667 340 662T368 656Q388 656 399 669T416 700H464Q461 681 455 663T437 629T409 605T371 596Q350 596 330
602T290 617Q275 623 258 629T224 636Q205 636 194 623T178 592H130ZM47 234Q47 289 66 334T118 411T197 462T297 480Q351 480 397 462T476 412T528 334T547 234Q547 179 528 134T476 57T397 6T297 -12Q243 -12 197 6T118 56T66 134T47 234ZM131 234Q131 197 142
166T176 111T228 74T297 60Q335 60 365 73T418 110T451 165T463 234Q463 271 452 302T418 357T366 394T297 408Q259 408 229 395T176 358T143 303T131 234Z" />
<glyph unicode="&#xf6;" glyph-name="odieresis" horiz-adv-x="594" d="M198 700Q221 700 236 684T252 646Q252 623 237 608T198 592Q175 592 160 607T144 646Q144 668 159 684T198 700ZM396 700Q419 700 434 684T450 646Q450 623 435 608T396 592Q373 592 358
607T342 646Q342 668 357 684T396 700ZM47 234Q47 289 66 334T118 411T197 462T297 480Q351 480 397 462T476 412T528 334T547 234Q547 179 528 134T476 57T397 6T297 -12Q243 -12 197 6T118 56T66 134T47 234ZM131 234Q131 197 142 166T176 111T228 74T297 60Q335
60 365 73T418 110T451 165T463 234Q463 271 452 302T418 357T366 394T297 408Q259 408 229 395T176 358T143 303T131 234Z" />
<glyph unicode="&#xf7;" glyph-name="divide" horiz-adv-x="666" d="M72 336H594V270H72V336ZM276 468Q276 492 293 508T333 525Q356 525 373 508T390 468Q390 444 373 428T333 411Q310 411 293 428T276 468ZM276 138Q276 162 293 178T333 195Q356 195 373 178T390
138Q390 114 373 98T333 81Q310 81 293 98T276 138Z" />
<glyph unicode="&#xf8;" glyph-name="oslash" horiz-adv-x="594" d="M401 373Q381 390 355 399T297 408Q259 408 229 395T176 358T143 303T131 234Q131 173 162 130L401 373ZM193 95Q234 60 297 60Q335 60 365 73T418 110T451 165T463 234Q463 295 432 338L193
95ZM105 72Q77 103 62 144T47 234Q47 289 66 334T118 411T197 462T297 480Q344 480 384 467T456 429L523 498L557 466L490 397Q517 365 532 324T547 234Q547 179 528 134T476 57T397 6T297 -12Q250 -12 210 1T139 40L71 -30L37 2L105 72Z" />
<glyph unicode="&#xf9;" glyph-name="ugrave" horiz-adv-x="556" d="M347 580H276L133 724H243L347 580ZM482 111Q482 79 484 51T486 0H412Q412 19 411 38T410 77H408Q400 60 386 44T351 16T306 -4T252 -12Q206 -12 173 2T117 41T85 101T74 179V468H152V187Q152
128 178 94T259 60Q297 60 324 73T369 110T395 167T404 240V468H482V111Z" />
<glyph unicode="&#xfa;" glyph-name="uacute" horiz-adv-x="556" d="M313 724H423L280 580H209L313 724ZM482 111Q482 79 484 51T486 0H412Q412 19 411 38T410 77H408Q400 60 386 44T351 16T306 -4T252 -12Q206 -12 173 2T117 41T85 101T74 179V468H152V187Q152
128 178 94T259 60Q297 60 324 73T369 110T395 167T404 240V468H482V111Z" />
<glyph unicode="&#xfb;" glyph-name="ucircumflex" horiz-adv-x="556" d="M232 724H323L435 580H354L275 682L197 580H121L232 724ZM482 111Q482 79 484 51T486 0H412Q412 19 411 38T410 77H408Q400 60 386 44T351 16T306 -4T252 -12Q206 -12 173 2T117 41T85
101T74 179V468H152V187Q152 128 178 94T259 60Q297 60 324 73T369 110T395 167T404 240V468H482V111Z" />
<glyph unicode="&#xfc;" glyph-name="udieresis" horiz-adv-x="556" d="M179 700Q202 700 217 684T233 646Q233 623 218 608T179 592Q156 592 141 607T125 646Q125 668 140 684T179 700ZM377 700Q400 700 415 684T431 646Q431 623 416 608T377 592Q354 592 339
607T323 646Q323 668 338 684T377 700ZM482 111Q482 79 484 51T486 0H412Q412 19 411 38T410 77H408Q400 60 386 44T351 16T306 -4T252 -12Q206 -12 173 2T117 41T85 101T74 179V468H152V187Q152 128 178 94T259 60Q297 60 324 73T369 110T395 167T404 240V468H482V111Z"
/>
<glyph unicode="&#xfd;" glyph-name="yacute" horiz-adv-x="482" d="M276 724H386L243 580H172L276 724ZM246 -107Q234 -137 222 -161T192 -203T150 -230T90 -240Q73 -240 55 -238T20 -228L30 -160Q42 -165 55 -166T85 -168Q123 -168 141 -147T172 -91L204 -3L10
468H101L246 101H248L387 468H472L246 -107Z" />
<glyph unicode="&#xfe;" glyph-name="thorn" horiz-adv-x="611" d="M70 756H148V400H150Q182 438 224 459T318 480Q373 480 418 462T496 410T546 332T564 234Q564 181 546 136T497 58T422 7T330 -12Q267 -12 220 15T150 83H148V-228H70V756ZM148 234Q148 197 159
166T193 111T245 74T314 60Q352 60 382 73T435 110T468 165T480 234Q480 271 469 302T435 357T383 394T314 408Q276 408 246 395T193 358T160 303T148 234Z" />
<glyph unicode="&#xff;" glyph-name="ydieresis" horiz-adv-x="482" d="M142 700Q165 700 180 684T196 646Q196 623 181 608T142 592Q119 592 104 607T88 646Q88 668 103 684T142 700ZM340 700Q363 700 378 684T394 646Q394 623 379 608T340 592Q317 592 302 607T286
646Q286 668 301 684T340 700ZM246 -107Q234 -137 222 -161T192 -203T150 -230T90 -240Q73 -240 55 -238T20 -228L30 -160Q42 -165 55 -166T85 -168Q123 -168 141 -147T172 -91L204 -3L10 468H101L246 101H248L387 468H472L246 -107Z" />
<glyph unicode="&#x131;" glyph-name="dotlessi" horiz-adv-x="240" d="M81 468H159V0H81V468Z" />
<glyph unicode="&#x141;" glyph-name="Lslash" horiz-adv-x="500" d="M88 221L10 154V233L88 300V708H172V372L388 558V479L172 293V78H496V0H88V221Z" />
<glyph unicode="&#x142;" glyph-name="lslash" horiz-adv-x="240" d="M81 308L0 227V309L81 390V756H159V468L240 549V468L159 387V0H81V308Z" />
<glyph unicode="&#x152;" glyph-name="OE" horiz-adv-x="963" d="M602 408H884V330H602V78H908V0H448Q350 0 277 29T154 108T80 221T55 354Q55 423 80 487T154 600T276 678T448 708H902V630H602V408ZM518 630H452Q372 630 315 606T219 543T163 455T145 354Q145
303 163 254T219 165T314 102T452 78H518V630Z" />
<glyph unicode="&#x153;" glyph-name="oe" horiz-adv-x="907" d="M510 210Q510 179 520 152T549 105T592 72T646 60Q697 60 732 78T795 131L854 85Q812 31 762 10T646 -12Q595 -12 549 10T472 84Q436 36 390 12T280 -12Q224 -12 179 5T103 55T54 133T36 234Q36
287 53 332T103 410T179 461T277 480Q340 480 387 458T472 386Q545 480 649 480Q698 480 739 464T809 416T855 339T871 235V210H510ZM120 234Q120 200 129 169T158 113T207 75T276 60Q316 60 346 73T396 111T427 166T438 234Q438 268 428 299T399 355T349 393T280
408Q241 408 211 394T161 357T130 302T120 234ZM787 276Q785 336 748 372T646 408Q617 408 593 397T550 367T522 324T510 276H787Z" />
<glyph unicode="&#x160;" glyph-name="Scaron" horiz-adv-x="556" d="M324 758H233L122 902H203L281 800L358 902H434L324 758ZM424 583Q403 617 368 632T295 648Q267 648 240 641T192 620T157 583T144 529Q144 505 151 487T176 453T222 425T293 399Q334 386 372
371T440 333T487 276T505 189Q505 136 484 97T429 33T349 -5T256 -18Q225 -18 194 -13T135 4T81 34T38 80L110 139Q133 100 174 80T261 60Q288 60 315 68T365 91T401 130T415 183Q415 216 404 236T370 272T312 299T230 327Q192 339 160 354T105 392T68 446T54 522Q54
573 74 611T128 674T205 713T295 726Q355 726 404 708T493 643L424 583Z" />
<glyph unicode="&#x161;" glyph-name="scaron" horiz-adv-x="426" d="M259 580H168L57 724H138L216 622L293 724H369L259 580ZM84 123Q107 94 134 77T204 60Q222 60 240 64T274 77T298 99T307 132Q307 151 299 163T276 183T244 197T207 206Q174 213 144 222T92
245T56 283T42 342Q42 376 57 402T97 445T153 471T217 480Q267 480 309 460T376 395L311 352Q296 377 272 392T212 408Q196 408 180 404T150 392T129 372T120 343Q120 328 129 318T155 299T193 285T238 275Q269 269 297 260T346 234T379 194T391 135Q391 95 375
67T333 22T273 -4T204 -12Q144 -12 101 6T22 75L84 123Z" />
<glyph unicode="&#x178;" glyph-name="Ydieresis" horiz-adv-x="594" d="M198 878Q221 878 236 862T252 824Q252 801 237 786T198 770Q175 770 160 785T144 824Q144 846 159 862T198 878ZM396 878Q419 878 434 862T450 824Q450 801 435 786T396 770Q373 770 358
785T342 824Q342 846 357 862T396 878ZM255 305L-9 708H98L297 388L502 708H603L339 305V0H255V305Z" />
<glyph unicode="&#x17d;" glyph-name="Zcaron" horiz-adv-x="574" d="M333 758H242L131 902H212L290 800L367 902H443L333 758ZM29 75L438 630H35V708H540V636L131 78H545V0H29V75Z" />
<glyph unicode="&#x17e;" glyph-name="zcaron" horiz-adv-x="444" d="M268 580H177L66 724H147L225 622L302 724H378L268 580ZM30 61L305 402H42V468H407V408L132 66H414V0H30V61Z" />
<glyph unicode="&#x192;" glyph-name="florin" horiz-adv-x="556" d="M431 359H305L240 15Q233 -20 222 -49T191 -99T144 -132T76 -144Q53 -144 31 -138T-10 -120L26 -57Q37 -65 50 -68T78 -72Q102 -72 117 -62T141 -37T154 -2T162 35L222 359H114V425H235L256
535Q263 571 273 604T301 663T348 704T420 720Q473 720 520 692L483 630Q470 638 456 643T426 648Q402 648 387 638T362 611T347 574T338 535L317 425H431V359Z" />
<glyph unicode="&#x2c6;" glyph-name="circumflex" horiz-adv-x="240" d="M74 708H165L277 564H196L117 666L39 564H-37L74 708Z" />
<glyph unicode="&#x2c7;" glyph-name="caron" horiz-adv-x="240" d="M166 564H75L-36 708H45L123 606L200 708H276L166 564Z" />
<glyph unicode="&#x2d8;" glyph-name="breve" horiz-adv-x="240" d="M16 702Q24 663 52 644T119 624Q163 624 188 641T225 702H273Q266 636 225 603T119 570Q56 570 14 603T-33 702H16Z" />
<glyph unicode="&#x2d9;" glyph-name="dotaccent" horiz-adv-x="240" d="M120 684Q143 684 158 668T174 630Q174 607 159 592T120 576Q97 576 82 591T66 630Q66 652 81 668T120 684Z" />
<glyph unicode="&#x2da;" glyph-name="ring" horiz-adv-x="240" d="M21 645Q21 665 28 683T49 714T80 736T120 744Q164 744 191 715T219 645Q219 604 191 575T120 546Q77 546 49 575T21 645ZM63 645Q63 620 80 604T120 588Q142 588 159 604T177 645Q177 669 160
685T120 702Q98 702 81 686T63 645Z" />
<glyph unicode="&#x2db;" glyph-name="ogonek" horiz-adv-x="240" d="M203 -182Q184 -200 161 -210T111 -221Q93 -221 76 -215T46 -198T26 -171T18 -136Q18 -115 26 -95T48 -57T77 -25T109 0H160Q149 -8 136 -20T111 -47T92 -79T84 -115Q84 -135 96 -148T132 -161Q145
-161 159 -156T182 -141L203 -182Z" />
<glyph unicode="&#x2dc;" glyph-name="tilde" horiz-adv-x="240" d="M-47 576Q-44 595 -37 614T-17 647T13 671T53 680Q76 680 96 673T137 657Q152 651 163 646T191 640Q211 640 222 653T239 684H287Q284 665 278 647T260 613T232 589T194 580Q173 580 153 586T113
601Q98 607 81 613T47 620Q28 620 17 607T1 576H-47Z" />
<glyph unicode="&#x2dd;" glyph-name="hungarumlaut" horiz-adv-x="240" d="M45 564H-22L78 708H174L45 564ZM202 564H134L243 708H345L202 564Z" />
<glyph unicode="&#x2013;" glyph-name="endash" horiz-adv-x="500" d="M500 204H0V276H500V204Z" />
<glyph unicode="&#x2014;" glyph-name="emdash" horiz-adv-x="1000" d="M0 276H1000V204H0V276Z" />
<glyph unicode="&#x2018;" glyph-name="quoteleft" horiz-adv-x="278" d="M142 708H218L151 468H60L142 708Z" />
<glyph unicode="&#x2019;" glyph-name="quoteright" horiz-adv-x="278" d="M136 468H60L127 708H218L136 468Z" />
<glyph unicode="&#x201a;" glyph-name="quotesinglbase" horiz-adv-x="278" d="M136 -138H60L127 102H218L136 -138Z" />
<glyph unicode="&#x201c;" glyph-name="quotedblleft" horiz-adv-x="519" d="M169 708H245L178 468H87L169 708ZM356 708H432L365 468H274L356 708Z" />
<glyph unicode="&#x201d;" glyph-name="quotedblright" horiz-adv-x="519" d="M163 468H87L154 708H245L163 468ZM350 468H274L341 708H432L350 468Z" />
<glyph unicode="&#x201e;" glyph-name="quotedblbase" horiz-adv-x="519" d="M163 -138H87L154 102H245L163 -138ZM350 -138H274L341 102H432L350 -138Z" />
<glyph unicode="&#x2020;" glyph-name="dagger" horiz-adv-x="556" d="M317 505H521V439H317V-126H239V439H35V505H239V708H317V505Z" />
<glyph unicode="&#x2021;" glyph-name="daggerdbl" horiz-adv-x="556" d="M317 516H515V450H317V132H515V66H317V-126H239V66H41V132H239V450H41V516H239V708H317V516Z" />
<glyph unicode="&#x2022;" glyph-name="bullet" horiz-adv-x="500" d="M73 354Q73 391 87 423T125 479T181 517T250 531Q287 531 319 517T375 479T413 423T427 354Q427 317 413 285T375 229T319 191T250 177Q213 177 181 191T125 229T87 285T73 354Z" />
<glyph unicode="&#x2026;" glyph-name="ellipsis" horiz-adv-x="1000" d="M167 114Q192 114 209 97T227 54Q227 29 209 12T167 -6Q144 -6 126 11T107 54Q107 79 124 96T167 114ZM500 114Q525 114 542 97T560 54Q560 29 542 12T500 -6Q477 -6 459 11T440 54Q440
79 457 96T500 114ZM833 114Q858 114 875 97T893 54Q893 29 875 12T833 -6Q810 -6 792 11T773 54Q773 79 790 96T833 114Z" />
<glyph unicode="&#x2030;" glyph-name="perthousand" horiz-adv-x="1018" d="M18 563Q18 595 30 623T64 673T114 707T175 720Q207 720 235 708T285 674T319 624T332 563Q332 530 320 502T286 452T237 419T175 406Q142 406 114 418T64 452T31 501T18 563ZM84 563Q84
545 91 529T111 500T140 480T175 472Q193 472 209 479T238 499T258 528T266 563Q266 581 259 597T239 626T210 646T175 654Q157 654 141 647T112 627T92 598T84 563ZM326 145Q326 177 338 205T372 255T422 289T483 302Q515 302 543 290T593 256T627 206T640 145Q640
112 628 84T594 34T545 1T483 -12Q450 -12 422 0T372 34T339 83T326 145ZM392 145Q392 127 399 111T419 82T448 62T483 54Q501 54 517 61T546 81T566 110T574 145Q574 163 567 179T547 208T518 228T483 236Q465 236 449 229T420 209T400 180T392 145ZM686 145Q686
177 698 205T732 255T782 289T843 302Q875 302 903 290T953 256T987 206T1000 145Q1000 112 988 84T954 34T905 1T843 -12Q810 -12 782 0T732 34T699 83T686 145ZM752 144Q752 126 759 110T779 81T808 61T843 53Q861 53 877 60T906 80T926 109T934 144Q934 162
927 178T907 207T878 227T843 235Q825 235 809 228T780 208T760 179T752 144ZM525 740L580 708L136 -32L81 0L525 740Z" />
<glyph unicode="&#x2039;" glyph-name="guilsinglleft" horiz-adv-x="314" d="M139 240L256 62L201 26L58 240L201 454L256 418L139 240Z" />
<glyph unicode="&#x203a;" glyph-name="guilsinglright" horiz-adv-x="314" d="M175 240L58 418L113 454L256 240L113 26L58 62L175 240Z" />
<glyph unicode="&#x2044;" glyph-name="fraction" horiz-adv-x="167" d="M278 740L333 708L-111 -32L-166 0L278 740Z" />
<glyph unicode="&#x20ac;" glyph-name="Euro" horiz-adv-x="556" d="M504 614Q481 631 449 641T376 651Q309 651 260 608T189 479H466L451 420H178Q176 402 175 383T173 343Q173 329 173 316T175 288H417L401 231H182Q196 148 237 102T351 55Q393 55 424 73T477
117L523 72Q497 37 450 13T345 -12Q243 -12 180 49T96 231H23L41 288H89Q88 302 88 316T87 346Q87 366 88 384T91 420H25L44 479H102Q116 538 142 583T204 658T283 704T377 720Q419 720 460 709T525 684L504 614Z" />
<glyph unicode="&#x2122;" glyph-name="trademark" horiz-adv-x="990" d="M194 642H64V708H390V642H260V296H194V642ZM473 708H578L701 395L824 708H926V296H860V642H858L722 296H677L541 642H539V296H473V708Z" />
<glyph unicode="&#x2212;" glyph-name="minus" horiz-adv-x="666" d="M594 336V270H72V336H594Z" />
<glyph unicode="&#xfb01;" glyph-name="fi" horiz-adv-x="537" d="M306 402H192V0H114V402H12V468H114V573Q114 616 122 651T149 713T201 753T280 768Q295 768 312 765T340 756L329 686Q301 696 276 696Q246 696 229 686T204 657T194 612T192 556V468H306V402ZM378
468H456V0H378V468ZM360 651Q360 674 376 691T417 708Q441 708 457 691T474 651Q474 626 458 610T417 594Q392 594 376 610T360 651Z" />
<glyph unicode="&#xfb02;" glyph-name="fl" horiz-adv-x="537" d="M114 402H12V468H114V573Q114 616 122 651T149 713T201 753T280 768Q295 768 312 765T340 756L329 686Q301 696 276 696Q246 696 229 686T204 657T194 612T192 556V468H306V402H192V0H114V402ZM378
756H456V0H378V756Z" />
</font>
</defs>
</svg>
