<?xml version="1.0" standalone="no"?> <!DOCTYPE svg PUBLIC "-//W3C//DTD SVG 1.0//EN" "http://www.w3.org/TR/2001/REC-SVG-20010904/DTD/svg10.dtd" > 
<svg xmlns="http://www.w3.org/2000/svg" width="100%" height="100%">
<metadata version="1.0"><uniqueid id="com.myfonts.linotype.avenir.85-heavy-oblique.wfkit2.ig1q"/><vendor name="MyFonts" url="http://www.myfonts.com/"/><credits><credit name="Adrian Frutiger" url="http://www.myfonts.com/person/frutiger/adrian/"/></credits><description><text lang="en">This is a Webfont from MyFonts. Full information about this font:
http://www.myfonts.com/fonts/linotype/avenir/
</text></description><license url="http://www.myfonts.com/viewlicense?lid=1631"/><copyright><text lang="en">Part of the digitally encoded machine readable outline data for producing the Typefaces provided is copyrighted © 1981 - 2007 Linotype GmbH, www.linotype.com. All rights reserved. This software is the property of Linotype GmbH, and may not be reproduced, modified, disclosed or transferred without the express written approval of Linotype GmbH. Copyright © 1989, 1995 Adobe Systems Incorporated. All Rights Reserved. Avenir is a trademark of Linotype GmbH registered in the U.S. Patent and Trademark Office and may be registered in certain other jurisdictions. This typeface is original artwork of Adrian Frutiger. The design may be protected in certain jurisdictions.</text></copyright><trademark><text lang="en">Avenir is a trademark of Linotype GmbH registered in the U.S. Patent and Trademark Office and may be registered in certain other jurisdictions.</text></trademark></metadata>
<defs >
<font id="wf" horiz-adv-x="471" ><font-face
    font-family="Avenir LT 85 HeavyOblique"
    units-per-em="1000"
    panose-1="2 11 9 3 2 0 0 9 0 3"
    ascent="762"
    descent="-238"
    alphabetic="0" />
<missing-glyph horiz-adv-x="296" />
<glyph unicode=" " glyph-name="space" horiz-adv-x="296" />
<glyph unicode="!" glyph-name="exclam" horiz-adv-x="296" d="M239 222H119L187 708H307L239 222ZM77 70Q82 102 108 125T168 148Q200 148 221 126T238 72Q233 40 207 17T147 -6Q131 -6 118 0T94 16T80 40T77 70Z" />
<glyph unicode="&quot;" glyph-name="quotedbl" horiz-adv-x="519" d="M219 708H321L284 444H182L219 708ZM396 708H498L461 444H359L396 708Z" />
<glyph unicode="#" glyph-name="numbersign" horiz-adv-x="592" d="M166 209H76L88 293H189L224 415H134L146 499H247L306 708H394L335 499H438L497 708H584L525 499H615L603 415H501L467 293H557L545 209H445L385 0H298L357 209H253L194 0H107L166 209ZM311 415L277
293H380L414 415H311Z" />
<glyph unicode="$" glyph-name="dollar" horiz-adv-x="592" d="M419 720H428Q479 720 529 703T614 651L518 558Q498 583 469 597T404 612L375 412L379 411Q419 400 458 386T525 350T568 293T576 208Q569 158 546 120T487 54T408 10T316 -11L306 -83H252L262 -12Q196
-13 138 8T41 77L145 170Q165 136 200 118T277 96L307 307L302 308Q261 320 225 334T164 372T126 429T120 513Q126 558 149 594T205 656T280 699T365 719L374 786H428L419 720ZM349 610Q313 604 283 581T246 519Q243 496 248 482T265 458T291 442T324 427L349 610ZM331
96Q374 104 408 129T448 199Q451 221 444 236T424 261T393 278T358 291L331 96Z" />
<glyph unicode="%" glyph-name="percent" horiz-adv-x="907" d="M529 174Q534 213 553 246T601 305T666 345T741 360Q780 360 811 346T865 306T896 247T901 174Q895 135 876 102T828 43T764 3T689 -12Q650 -12 618 2T565 42T533 101T529 174ZM805 174Q810 212
788 238T728 264Q709 264 692 257T660 238T637 210T625 174Q620 136 642 110T702 84Q721 84 738 91T770 110T793 138T805 174ZM105 534Q110 573 129 606T177 665T242 705T317 720Q356 720 387 706T441 666T472 607T477 534Q471 495 452 462T404 403T339 363T264
348Q225 348 194 362T141 402T109 461T105 534ZM381 534Q386 572 364 598T303 624Q284 624 267 617T236 598T213 570T201 534Q196 496 218 470T278 444Q297 444 314 451T346 470T369 498T381 534ZM725 740L802 702L283 -32L205 6L725 740Z" />
<glyph unicode="&amp;" glyph-name="ampersand" horiz-adv-x="741" d="M597 167L727 0H572L508 81Q457 30 405 6T285 -18Q238 -18 197 -5T126 35T82 100T74 190Q79 226 95 256T136 312T191 357T255 389Q241 408 229 426T208 463T197 504T197 552Q203 595 224 628T277
682T346 715T425 726Q465 726 499 716T558 686T595 633T601 558Q596 525 580 498T541 448T490 407T434 375L531 252L627 372H768L597 167ZM411 618Q376 618 349 599T316 547Q312 519 330 493T369 444Q385 452 403 462T438 486T465 516T480 552Q484 581 464 599T411
618ZM321 318Q302 307 283 296T248 270T221 238T207 197Q204 174 210 154T229 120T262 98T304 90Q346 90 379 112T444 160L321 318Z" />
<glyph unicode="&apos;" glyph-name="quotesingle" horiz-adv-x="296" d="M196 708H298L261 444H159L196 708Z" />
<glyph unicode="(" glyph-name="parenleft" horiz-adv-x="296" d="M374 680L373 676Q301 592 253 492T190 288Q176 184 195 84T263 -101L172 -156Q116 -61 94 52T88 288Q105 410 160 523T296 732L374 680Z" />
<glyph unicode=")" glyph-name="parenright" horiz-adv-x="296" d="M2 -104L3 -100Q75 -16 123 84T186 288Q200 392 181 492T113 676L204 732Q260 637 282 524T288 288Q271 166 216 53T80 -156L2 -104Z" />
<glyph unicode="*" glyph-name="asterisk" horiz-adv-x="463" d="M353 566L494 610L509 530L367 486L436 369L360 319L291 437L191 322L131 373L233 486L102 533L140 613L269 566L289 708H373L353 566Z" />
<glyph unicode="+" glyph-name="plus" horiz-adv-x="666" d="M331 354L362 574H464L433 354H653L639 252H419L388 32H286L317 252H97L111 354H331Z" />
<glyph unicode="," glyph-name="comma" horiz-adv-x="296" d="M127 138H249L127 -126H20L127 138Z" />
<glyph unicode="-" glyph-name="hyphen" horiz-adv-x="315" d="M335 195H88L116 297H363L335 195Z" />
<glyph unicode="." glyph-name="period" horiz-adv-x="296" d="M77 70Q82 102 108 125T168 148Q200 148 221 126T238 72Q233 40 207 17T147 -6Q131 -6 118 0T94 16T80 40T77 70Z" />
<glyph unicode="/" glyph-name="slash" horiz-adv-x="389" d="M67 -48L-11 -18L409 758L488 726L67 -48Z" />
<glyph unicode="0" glyph-name="zero" horiz-adv-x="592" d="M89 354Q101 438 123 497T172 597T231 662T292 699T350 716T397 720Q417 720 443 716T495 700T546 663T586 598T608 498T601 354Q589 270 568 211T519 111T460 46T398 9T341 -8T294 -12Q274 -12 248
-8T196 8T145 45T104 110T83 210T89 354ZM209 354Q204 321 203 278T210 195T242 129T310 102Q355 102 385 129T436 195T466 277T481 354Q486 387 488 430T481 513T449 579T381 606Q336 606 306 579T255 513T225 431T209 354Z" />
<glyph unicode="1" glyph-name="one" horiz-adv-x="592" d="M348 570L197 447L139 530L378 708H487L388 0H268L348 570Z" />
<glyph unicode="2" glyph-name="two" horiz-adv-x="592" d="M76 127L389 393Q403 405 417 418T445 447T467 478T479 513Q485 557 458 581T389 606Q344 606 311 580T266 510L142 520Q153 569 177 606T236 669T314 707T405 720Q453 720 493 708T560 671T600 608T605
519Q596 452 559 404T467 311L220 108H548L533 0H59L76 127Z" />
<glyph unicode="3" glyph-name="three" horiz-adv-x="592" d="M281 423H312Q338 423 363 426T409 439T444 468T463 519Q469 560 445 586T376 612Q340 612 308 592T259 534L136 568Q153 607 179 636T238 683T308 711T385 720Q431 720 470 708T537 673T578 614T585
531Q577 474 539 430T442 371L441 369Q508 359 536 311T555 197Q548 146 523 107T461 42T379 2T287 -12Q243 -12 206 -3T139 27T92 78T67 154L200 188Q205 144 229 120T302 96Q326 96 348 104T389 126T420 161T437 207Q442 241 431 262T398 295T350 311T295 315H266L281
423Z" />
<glyph unicode="4" glyph-name="four" horiz-adv-x="592" d="M355 144H54L70 263L418 708H554L490 252H593L578 144H475L455 0H335L355 144ZM410 538H408L191 252H370L410 538Z" />
<glyph unicode="5" glyph-name="five" horiz-adv-x="592" d="M589 600H304L281 459Q296 464 317 466T358 468Q410 468 451 452T519 404T557 330T561 233Q553 176 527 131T463 54T375 5T271 -12Q186 -12 132 28T65 150L195 184Q202 146 228 124T300 102Q327 102
351 111T393 136T424 175T440 223Q445 260 435 286T405 328T355 352T293 360Q254 360 214 351T140 326L201 708H604L589 600Z" />
<glyph unicode="6" glyph-name="six" horiz-adv-x="592" d="M536 708L329 446L331 444Q342 450 361 453T399 456Q446 456 482 438T543 389T576 317T580 230Q572 175 547 130T484 54T397 5T294 -12Q238 -12 195 4T122 52T81 128T76 229Q84 285 108 330T169 423L390
708H536ZM202 231Q198 204 205 181T227 140T264 112T313 102Q340 102 364 112T409 139T442 180T460 231Q464 258 457 281T435 322T398 350T349 360Q322 360 298 350T253 323T220 282T202 231Z" />
<glyph unicode="7" glyph-name="seven" horiz-adv-x="592" d="M141 708H622L607 598L240 0H99L471 594H125L141 708Z" />
<glyph unicode="8" glyph-name="eight" horiz-adv-x="592" d="M397 720Q442 720 479 708T543 672T582 614T588 534Q580 477 547 434T458 375V373Q483 368 504 353T539 315T560 263T563 201Q555 148 531 109T471 42T389 2T294 -12Q244 -12 203 1T133 42T91 108T85
201Q89 234 104 263T140 314T186 352T238 373V375Q187 391 167 434T154 534Q160 579 182 613T236 671T310 707T397 720ZM382 618Q336 618 307 590T272 522Q266 480 288 452T355 423Q375 423 393 430T427 451T452 483T466 522Q471 562 448 590T382 618ZM341 327Q317
327 294 319T253 296T223 261T207 216Q199 165 228 134T310 102Q362 102 399 134T445 216Q448 240 442 260T421 296T386 319T341 327Z" />
<glyph unicode="9" glyph-name="nine" horiz-adv-x="592" d="M155 0L361 262L360 264Q348 258 329 255T292 252Q245 252 209 270T148 319T114 391T111 478Q118 533 143 578T207 654T294 703T397 720Q452 720 496 704T569 656T610 580T615 479Q607 423 582 378T522
285L301 0H155ZM489 477Q493 504 486 527T464 568T427 596T378 606Q351 606 327 596T282 569T249 528T231 477Q227 450 234 427T256 386T292 358T341 348Q368 348 393 358T438 385T471 426T489 477Z" />
<glyph unicode=":" glyph-name="colon" horiz-adv-x="296" d="M77 70Q82 102 108 125T168 148Q200 148 221 126T238 72Q233 40 207 17T147 -6Q131 -6 118 0T94 16T80 40T77 70ZM125 409Q130 441 156 464T216 487Q248 487 268 465T285 411Q280 379 254 356T194
333Q178 333 165 339T142 355T128 379T125 409Z" />
<glyph unicode=";" glyph-name="semicolon" horiz-adv-x="296" d="M146 138H268L109 -126H2L146 138ZM182 409Q186 425 196 439T221 464T251 481T284 487Q316 487 333 465T342 411Q337 395 327 381T303 356T273 339T240 333Q208 333 191 355T182 409Z" />
<glyph unicode="&lt;" glyph-name="less" horiz-adv-x="666" d="M117 267L127 339L665 564L649 454L290 303L607 152L591 42L117 267Z" />
<glyph unicode="=" glyph-name="equal" horiz-adv-x="666" d="M666 444L652 342H110L124 444H666ZM641 264L626 162H84L99 264H641Z" />
<glyph unicode="&gt;" glyph-name="greater" horiz-adv-x="666" d="M633 339L623 267L85 42L101 152L460 303L143 454L159 564L633 339Z" />
<glyph unicode="?" glyph-name="question" horiz-adv-x="519" d="M239 209L247 264Q250 286 254 301T267 329T287 353T317 381L405 459Q434 485 439 524Q444 563 423 587T362 612Q320 612 289 584T248 514L121 524Q146 620 216 673T383 726Q428 726 464 713T526
676T562 615T566 531Q561 498 549 473T519 427T479 387T431 347Q415 334 404 324T385 304T372 280T364 247L359 209H239ZM199 70Q204 102 230 125T290 148Q322 148 343 126T360 72Q355 40 329 17T269 -6Q253 -6 240 0T216 16T202 40T199 70Z" />
<glyph unicode="@" glyph-name="at" horiz-adv-x="800" d="M465 456Q440 456 419 447T382 421T356 382T342 335Q341 327 340 312T344 281T365 255T412 243Q440 243 460 254T494 282T515 321T526 364Q531 404 517 430T465 456ZM745 133Q681 59 595 21T417 -18Q337
-18 271 9T158 86T91 203T81 353Q92 433 132 501T231 619T363 697T516 726Q582 726 642 705T747 641T812 538T823 397Q812 317 779 269T707 195T628 161T567 153Q525 153 510 170T496 207H494Q471 187 439 170T358 153Q326 153 301 165T261 200T239 253T238 321Q244
365 263 405T313 477T382 527T469 546Q509 546 533 533T569 489H571L586 534H680L615 337Q610 323 605 309T598 280Q595 262 599 253T620 243Q636 243 652 251T683 278T709 325T727 392Q735 452 722 497T679 574T603 620T500 636Q438 636 384 615T288 556T219 466T183
353Q174 287 189 235T238 147T323 92T438 72Q495 72 544 88T635 133H745Z" />
<glyph unicode="A" glyph-name="A" horiz-adv-x="722" d="M407 708H516L722 0H578L534 162H227L141 0H0L407 708ZM505 270L437 558L285 270H505Z" />
<glyph unicode="B" glyph-name="B" horiz-adv-x="648" d="M178 708H454Q494 708 531 699T597 668T639 612T646 530Q638 470 598 431T501 375V373Q534 369 560 355T603 318T628 266T630 202Q622 144 594 106T524 44T434 10T334 0H79L178 708ZM264 420H379Q442 420
477 444T517 509Q524 555 495 577T393 600H289L264 420ZM220 108H336Q360 108 388 111T440 125T482 156T505 212Q513 268 480 290T369 312H248L220 108Z" />
<glyph unicode="C" glyph-name="C" horiz-adv-x="685" d="M641 542Q607 584 573 598T502 612Q447 612 400 593T315 539T254 458T223 359Q215 302 225 254T263 171T332 116T429 96Q472 96 515 116T600 182L694 108Q636 42 563 12T412 -18Q330 -18 265 8T158 83T97
200T90 351Q102 436 139 505T233 624T362 699T517 726Q589 726 646 701T749 614L641 542Z" />
<glyph unicode="D" glyph-name="D" horiz-adv-x="759" d="M178 708H457Q527 708 589 687T694 621T759 511T767 354Q754 263 710 197T606 87T477 22T343 0H79L178 708ZM315 114Q374 114 428 127T525 169T597 243T635 354Q644 418 631 464T586 538T508 580T403 594H288L221
114H315Z" />
<glyph unicode="E" glyph-name="E" horiz-adv-x="611" d="M178 708H647L631 594H288L264 420H589L573 306H248L221 114H582L566 0H79L178 708Z" />
<glyph unicode="F" glyph-name="F" horiz-adv-x="574" d="M178 708H635L619 594H288L262 408H574L558 294H246L205 0H79L178 708Z" />
<glyph unicode="G" glyph-name="G" horiz-adv-x="778" d="M715 52Q573 -18 412 -18Q330 -18 265 8T158 83T97 200T90 351Q102 436 139 505T233 624T362 699T517 726Q598 726 666 707T783 637L677 543Q648 576 602 594T502 612Q447 612 400 593T315 539T254 458T223
359Q215 302 225 254T263 171T332 116T429 96Q477 96 521 105T600 133L624 300H479L495 414H766L715 52Z" />
<glyph unicode="H" glyph-name="H" horiz-adv-x="741" d="M178 708H304L264 426H595L635 708H761L662 0H536L579 312H248L205 0H79L178 708Z" />
<glyph unicode="I" glyph-name="I" horiz-adv-x="278" d="M175 708H301L202 0H76L175 708Z" />
<glyph unicode="J" glyph-name="J" horiz-adv-x="500" d="M453 196Q447 154 428 115T379 47T306 0T210 -18Q126 -18 78 21T25 145L147 173Q148 138 167 117T220 96Q274 96 298 132T332 233L399 708H525L453 196Z" />
<glyph unicode="K" glyph-name="K" horiz-adv-x="685" d="M178 708H304L262 408H268L603 708H773L396 381L696 0H519L260 348H253L205 0H79L178 708Z" />
<glyph unicode="L" glyph-name="L" horiz-adv-x="519" d="M178 708H304L221 114H522L506 0H79L178 708Z" />
<glyph unicode="M" glyph-name="M" horiz-adv-x="926" d="M181 708H373L492 212L753 708H943L844 0H724L806 588H804L507 0H419L286 588H284L202 0H82L181 708Z" />
<glyph unicode="N" glyph-name="N" horiz-adv-x="796" d="M178 708H345L614 182H616L690 708H816L717 0H557L283 543H281L205 0H79L178 708Z" />
<glyph unicode="O" glyph-name="O" horiz-adv-x="833" d="M90 351Q102 436 139 505T233 624T362 699T517 726Q600 727 665 702T774 627T835 509T841 355Q829 272 792 204T698 87T568 11T412 -18Q330 -18 265 8T158 83T97 200T90 351ZM223 359Q215 302 225 254T263
171T332 116T429 96Q484 96 532 116T617 171T678 254T710 359Q717 412 707 458T669 538T600 592T502 612Q447 612 400 593T315 539T254 458T223 359Z" />
<glyph unicode="P" glyph-name="P" horiz-adv-x="611" d="M178 708H416Q467 708 513 698T591 665T640 602T648 503Q639 436 610 395T539 332T445 301T336 293H246L205 0H79L178 708ZM337 401Q364 401 393 403T448 415T492 445T516 501Q520 534 509 553T478 583T431
597T379 600H289L261 401H337Z" />
<glyph unicode="Q" glyph-name="Q" horiz-adv-x="852" d="M839 0H427Q344 0 277 25T165 98T100 214T92 369Q103 447 142 512T239 625T368 699T515 726Q591 726 654 700T762 626T827 513T836 369Q828 313 809 271T763 196T708 141T650 104V102H853L839 0ZM496 612Q445
612 399 594T316 542T256 464T224 366Q216 312 228 266T267 186T335 133T428 114Q480 114 527 133T611 185T672 265T704 366Q711 419 700 464T662 542T592 593T496 612Z" />
<glyph unicode="R" glyph-name="R" horiz-adv-x="630" d="M178 708H424Q475 708 521 699T601 666T651 604T659 505Q654 467 639 434T599 376T541 335T468 313L613 0H461L339 300H247L205 0H79L178 708ZM360 408Q387 408 414 410T465 422T506 451T528 506Q532 537
522 556T492 584T447 597T398 600H289L262 408H360Z" />
<glyph unicode="S" glyph-name="S" horiz-adv-x="574" d="M504 556Q487 585 456 598T388 612Q366 612 345 607T305 591T275 563T259 521Q254 485 276 466T333 433T410 406T486 370T540 309T551 208Q543 151 516 109T450 38T361 -4T260 -18Q194 -18 136 4T41 78L149
170Q168 135 202 116T279 96Q301 96 323 102T365 120T399 150T417 193Q422 232 400 253T343 288T266 316T190 351T136 411T125 512Q133 567 161 607T229 673T319 713T417 726Q473 726 523 709T609 653L504 556Z" />
<glyph unicode="T" glyph-name="T" horiz-adv-x="574" d="M307 594H90L106 708H666L650 594H433L350 0H224L307 594Z" />
<glyph unicode="U" glyph-name="U" horiz-adv-x="722" d="M682 260Q673 196 644 145T572 57T474 2T358 -18Q297 -18 248 1T165 57T118 144T112 260L175 708H301L239 264Q235 238 239 210T258 157T301 118T375 102Q420 102 453 117T507 157T541 209T557 264L619
708H745L682 260Z" />
<glyph unicode="V" glyph-name="V" horiz-adv-x="667" d="M96 708H241L359 173L633 708H769L384 0H275L96 708Z" />
<glyph unicode="W" glyph-name="W" horiz-adv-x="981" d="M99 708H237L298 198H300L531 708H655L739 198H741L952 708H1080L775 0H655L566 539H564L325 0H209L99 708Z" />
<glyph unicode="X" glyph-name="X" horiz-adv-x="685" d="M304 370L115 708H274L404 446L606 708H759L480 370L685 0H525L380 299L152 0H0L304 370Z" />
<glyph unicode="Y" glyph-name="Y" horiz-adv-x="630" d="M294 303L85 708H243L377 426L593 708H743L420 303L378 0H252L294 303Z" />
<glyph unicode="Z" glyph-name="Z" horiz-adv-x="611" d="M51 114L496 594H124L140 708H669L653 594L205 114H592L576 0H35L51 114Z" />
<glyph unicode="[" glyph-name="bracketleft" horiz-adv-x="278" d="M349 654H259L157 -78H247L236 -156H44L168 732H360L349 654Z" />
<glyph unicode="\" glyph-name="backslash" horiz-adv-x="389" d="M192 758L395 -18L308 -48L105 726L192 758Z" />
<glyph unicode="]" glyph-name="bracketright" horiz-adv-x="278" d="M9 -78H99L201 654H111L122 732H314L190 -156H-1L9 -78Z" />
<glyph unicode="^" glyph-name="asciicircum" horiz-adv-x="666" d="M117 343L391 708H473L645 343H527L413 582L235 343H117Z" />
<glyph unicode="_" glyph-name="underscore" horiz-adv-x="500" d="M-17 -125L-10 -75H489L482 -125H-17Z" />
<glyph unicode="`" glyph-name="grave" horiz-adv-x="260" d="M256 564H162L41 708H177L256 564Z" />
<glyph unicode="a" glyph-name="a" horiz-adv-x="537" d="M377 66H374Q342 25 300 7T209 -12Q176 -12 146 -3T93 24T60 69T54 132Q62 190 97 223T180 274T281 295T380 299H410L411 312Q418 357 390 379T314 402Q276 402 241 389T179 352L125 415Q170 456 226 474T340
492Q391 492 424 481T478 451T508 410T519 362T519 316T514 276L476 0H368L377 66ZM391 215H366Q341 215 310 213T250 204T200 182T175 141Q173 124 179 113T196 93T221 82T250 78Q312 78 346 107T387 188L391 215Z" />
<glyph unicode="b" glyph-name="b" horiz-adv-x="630" d="M174 756H294L246 419H249Q260 431 276 443T313 467T362 485T423 492Q474 492 514 473T580 419T616 339T619 240Q611 187 589 141T531 61T449 8T347 -12Q296 -12 255 8T194 72H192L182 0H68L174 756ZM499
240Q503 268 497 294T476 340T436 372T378 384Q345 384 318 372T269 340T235 294T217 240Q213 212 219 186T240 140T280 108T338 96Q371 96 399 108T448 140T482 186T499 240Z" />
<glyph unicode="c" glyph-name="c" horiz-adv-x="482" d="M443 336Q425 358 404 371T358 384Q325 384 298 372T249 340T215 294T197 240Q193 212 199 186T220 140T260 108T318 96Q346 96 371 107T417 141L485 55Q464 37 439 24T389 3T342 -8T303 -12Q249 -12 204
6T128 57T83 136T77 240Q85 297 112 343T179 423T269 474T374 492Q420 492 464 475T537 419L443 336Z" />
<glyph unicode="d" glyph-name="d" horiz-adv-x="630" d="M458 72H456Q423 28 377 8T279 -12Q223 -12 182 7T115 61T79 141T77 240Q84 293 108 339T167 419T248 472T345 492Q379 492 404 485T447 467T477 444T497 419H500L548 756H668L562 0H448L458 72ZM197 240Q193
212 199 186T220 140T260 108T318 96Q351 96 379 108T428 140T462 186T479 240Q483 268 477 294T456 340T416 372T358 384Q325 384 298 372T249 340T215 294T197 240Z" />
<glyph unicode="e" glyph-name="e" horiz-adv-x="574" d="M191 198Q190 171 198 150T222 115T258 92T304 84Q349 84 382 102T442 149L519 84Q470 32 415 10T303 -12Q249 -12 204 6T128 57T83 136T77 240Q85 297 112 343T179 423T269 474T374 492Q475 492 527 425T562
231L557 198H191ZM450 288Q457 341 429 371T344 402Q290 402 254 371T204 288H450Z" />
<glyph unicode="f" glyph-name="f" horiz-adv-x="352" d="M164 378H65L79 480H178L188 548Q195 598 207 638T243 708T304 752T397 768Q438 768 472 761L450 659Q438 662 426 664T401 666Q376 666 360 658T333 637T318 605T310 567L298 480H409L395 378H284L231
0H111L164 378Z" />
<glyph unicode="g" glyph-name="g" horiz-adv-x="630" d="M629 480L568 43Q559 -22 536 -74T474 -163T381 -220T257 -240Q190 -240 133 -223T30 -161L116 -63Q147 -96 183 -114T271 -132Q314 -132 345 -120T396 -87T429 -37T446 29L450 64H448Q417 29 372 12T282
-6Q228 -6 187 13T119 66T81 144T77 240Q84 293 107 339T165 419T247 472T350 492Q401 492 442 472T503 408H505L515 480H629ZM359 384Q327 384 300 374T251 345T216 300T197 241Q193 212 200 187T224 143T264 113T319 102Q352 102 380 113T429 142T463 187T482
243Q490 306 458 345T359 384Z" />
<glyph unicode="h" glyph-name="h" horiz-adv-x="574" d="M246 413H248Q266 443 305 467T400 492Q448 492 479 476T528 434T549 374T548 303L506 0H386L420 243Q423 263 424 287T420 333T398 369T351 384Q321 384 299 374T262 347T237 308T224 262L188 0H68L174
756H294L246 413Z" />
<glyph unicode="i" glyph-name="i" horiz-adv-x="260" d="M137 480H257L190 0H70L137 480ZM143 643Q147 672 171 693T229 715Q262 715 282 695T297 643Q292 612 267 592T209 571Q176 571 158 592T143 643Z" />
<glyph unicode="j" glyph-name="j" horiz-adv-x="260" d="M257 480L185 -29Q179 -74 168 -112T135 -179T80 -224T-5 -240Q-22 -240 -38 -238T-69 -231L-45 -127Q-25 -132 -8 -132Q14 -132 27 -123T48 -98T59 -65T65 -30L137 480H257ZM143 643Q147 672 171 693T229
715Q262 715 282 695T297 643Q292 612 267 592T209 571Q176 571 158 592T143 643Z" />
<glyph unicode="k" glyph-name="k" horiz-adv-x="537" d="M174 756H294L227 281L440 480H594L357 262L540 0H381L224 245H222L188 0H68L174 756Z" />
<glyph unicode="l" glyph-name="l" horiz-adv-x="260" d="M176 756H296L190 0H70L176 756Z" />
<glyph unicode="m" glyph-name="m" horiz-adv-x="870" d="M130 480H244L233 405H235Q256 439 295 465T395 492Q508 492 532 403Q565 449 607 470T703 492Q751 492 781 476T828 432T849 367T847 286L807 0H687L725 272Q728 294 727 314T718 350T694 375T651 384Q623
384 602 374T567 346T543 306T531 260L495 0H375L415 286Q421 331 406 357T346 384Q316 384 294 374T257 347T232 308T219 262L183 0H63L130 480Z" />
<glyph unicode="n" glyph-name="n" horiz-adv-x="574" d="M135 480H249L238 403H240Q262 439 301 465T400 492Q448 492 479 476T528 434T549 374T548 303L506 0H386L420 243Q423 263 424 287T420 333T398 369T351 384Q321 384 299 374T262 347T237 308T224 262L188
0H68L135 480Z" />
<glyph unicode="o" glyph-name="o" horiz-adv-x="610" d="M77 240Q85 297 112 343T179 423T269 474T374 492Q428 492 473 474T548 423T593 344T599 240Q591 183 564 137T498 57T408 6T303 -12Q249 -12 204 6T128 57T83 136T77 240ZM197 240Q193 212 199 186T220
140T260 108T318 96Q351 96 379 108T428 140T462 186T479 240Q483 268 477 294T456 340T416 372T358 384Q325 384 298 372T249 340T215 294T197 240Z" />
<glyph unicode="p" glyph-name="p" horiz-adv-x="630" d="M135 480H249L239 408H241Q273 452 320 472T418 492Q473 492 514 473T581 419T616 339T619 240Q611 187 588 141T530 61T449 8T352 -12Q318 -12 293 -5T250 13T219 36T199 61H196L155 -228H35L135 480ZM499
240Q503 268 497 294T476 340T436 372T378 384Q345 384 318 372T269 340T235 294T217 240Q213 212 219 186T240 140T280 108T338 96Q371 96 399 108T448 140T482 186T499 240Z" />
<glyph unicode="q" glyph-name="q" horiz-adv-x="630" d="M529 -228H409L450 61H447Q436 49 421 37T384 13T335 -5T274 -12Q223 -12 183 7T117 61T80 141T77 240Q84 293 107 339T165 419T247 472T350 492Q401 492 442 472T503 408H505L515 480H629L529 -228ZM197
240Q193 212 199 186T220 140T260 108T318 96Q351 96 379 108T428 140T462 186T479 240Q483 268 477 294T456 340T416 372T358 384Q325 384 298 372T249 340T215 294T197 240Z" />
<glyph unicode="r" glyph-name="r" horiz-adv-x="389" d="M135 480H255L244 404H246Q272 446 312 469T401 492Q412 492 422 490T443 485L426 369Q412 373 398 375T370 378Q328 378 300 363T256 327T232 287T224 257L188 0H68L135 480Z" />
<glyph unicode="s" glyph-name="s" horiz-adv-x="444" d="M372 347Q344 396 285 396Q273 396 260 393T236 384T218 368T208 345Q205 323 222 313T268 296T328 282T387 259T429 216T438 142Q432 99 410 70T355 22T285 -4T210 -12Q154 -12 109 4T33 62L124 137Q144
111 167 95T229 78Q242 78 256 81T284 91T306 108T317 133Q321 158 304 170T258 189T198 203T138 224T96 265T87 337Q93 377 113 406T164 455T230 483T302 492Q350 492 394 476T462 419L372 347Z" />
<glyph unicode="t" glyph-name="t" horiz-adv-x="389" d="M65 378L79 480H178L197 619H317L298 480H430L416 378H284L254 168Q249 132 259 111T310 90Q326 90 345 93T377 105L363 4Q343 -5 315 -8T266 -12Q218 -12 189 -2T146 30T129 84T133 158L164 378H65Z" />
<glyph unicode="u" glyph-name="u" horiz-adv-x="574" d="M506 0H392L402 77H400Q379 41 340 15T241 -12Q193 -12 162 3T113 45T92 106T92 177L135 480H255L221 237Q218 217 217 193T220 147T241 111T289 96Q319 96 341 106T378 133T403 172T416 218L453 480H573L506 0Z" />
<glyph unicode="v" glyph-name="v" horiz-adv-x="519" d="M70 480H201L282 144H284L460 480H583L327 0H199L70 480Z" />
<glyph unicode="w" glyph-name="w" horiz-adv-x="796" d="M70 480H200L257 144H259L403 480H533L590 144H592L739 480H860L630 0H511L443 328H441L294 0H170L70 480Z" />
<glyph unicode="x" glyph-name="x" horiz-adv-x="537" d="M228 258L93 480H239L315 336L439 480H576L381 258L538 0H392L291 172L141 0H-1L228 258Z" />
<glyph unicode="y" glyph-name="y" horiz-adv-x="519" d="M70 480H202L289 147H291L458 480H583L274 -103Q256 -137 237 -162T195 -205T142 -231T72 -240Q24 -240 -18 -228L12 -120Q26 -125 40 -128T71 -132Q93 -132 108 -128T135 -116T156 -94T176 -61L207 -4L70 480Z" />
<glyph unicode="z" glyph-name="z" horiz-adv-x="482" d="M49 111L344 382V384H99L113 480H503L488 371L189 96H461L448 0H34L49 111Z" />
<glyph unicode="{" glyph-name="braceleft" horiz-adv-x="278" d="M46 332Q56 332 72 335T105 345T134 367T150 402L178 600Q182 634 199 658T239 699T285 724T324 732H415L404 648H349Q328 648 315 641T293 624T282 601T277 578L250 390Q245 361 232 342T202
312T168 295T138 289V287Q150 286 166 282T195 267T217 236T221 180L195 -2Q193 -13 193 -25T198 -47T214 -65T247 -72H302L291 -156H200Q184 -156 163 -148T124 -124T96 -83T90 -24L117 167Q120 191 112 206T90 229T60 241T34 244L46 332Z" />
<glyph unicode="|" glyph-name="bar" horiz-adv-x="222" d="M267 750L126 -250H24L165 750H267Z" />
<glyph unicode="}" glyph-name="braceright" horiz-adv-x="278" d="M312 244Q301 244 285 241T253 231T224 209T208 174L180 -24Q175 -58 158 -82T118 -123T73 -148T34 -156H-56L-45 -72H9Q30 -72 43 -65T65 -48T76 -25T81 -2L108 186Q112 215 125 234T156 264T190
280T220 287V289Q208 290 192 294T163 309T141 340T137 396L163 578Q164 589 164 601T160 623T144 641T111 648H56L67 732H158Q174 732 195 724T233 700T261 659T268 600L241 409Q238 385 246 370T268 347T297 335T324 332L312 244Z" />
<glyph unicode="~" glyph-name="asciitilde" horiz-adv-x="666" d="M607 301Q593 285 579 270T549 242T513 223T470 215Q442 215 419 224T372 248Q350 262 324 272T262 283Q245 283 231 277T205 261T184 239T167 215L143 299Q153 315 166 330T196 358T233 377T277
385Q306 385 334 376T388 353Q414 341 439 329T484 317Q499 317 512 323T538 339T561 361T583 385L607 301Z" />
<glyph unicode="&#x8e;" glyph-name="Zcaron" horiz-adv-x="611" d="M364 900L420 810L502 900H612L477 756H344L250 900H364ZM51 114L496 594H124L140 708H669L653 594L205 114H592L576 0H35L51 114Z" />
<glyph unicode="&#x9e;" glyph-name="zcaron" horiz-adv-x="482" d="M273 708L329 618L411 708H521L386 564H253L159 708H273ZM49 111L344 382V384H99L113 480H503L488 371L189 96H461L448 0H34L49 111Z" />
<glyph unicode="&#xa0;" glyph-name="nbspace" horiz-adv-x="296" />
<glyph unicode="&#xa1;" glyph-name="exclamdown" horiz-adv-x="296" d="M125 265H245L176 -222H56L125 265ZM286 416Q281 384 255 361T195 338Q179 338 166 344T143 360T129 384T126 414Q131 446 157 469T217 492Q233 492 246 486T269 470T283 446T286 416Z" />
<glyph unicode="&#xa2;" glyph-name="cent" horiz-adv-x="592" d="M423 492Q470 490 513 475T583 423L495 345Q479 365 457 376T408 390L366 90Q394 90 421 103T470 136L532 57Q494 22 447 6T352 -12L342 -84H288L298 -12Q247 -8 209 13T147 68T114 146T111 241Q118
293 140 336T195 412T272 464T369 492L378 559H432L423 492ZM354 389Q297 378 265 337T225 240Q217 187 239 146T312 90L354 389Z" />
<glyph unicode="&#xa3;" glyph-name="sterling" horiz-adv-x="592" d="M79 96H181L212 315H110L122 399H224L238 499Q243 536 261 575T312 646T392 699T501 720Q555 720 603 705T683 656L589 569Q570 589 546 600T490 612Q462 612 439 602T399 574T370 535T356
489L344 399H506L494 315H332L301 96H554L541 0H66L79 96Z" />
<glyph unicode="&#xa4;" glyph-name="currency" horiz-adv-x="592" d="M57 155L113 204Q94 236 87 274T85 355Q91 397 109 435T156 506L114 555L182 614L224 566Q259 589 299 601T382 614Q425 614 461 602T526 566L582 614L634 555L578 506Q617 438 605 355Q600
313 582 275T535 204L577 155L509 95L467 144Q432 121 392 108T309 95Q225 95 165 144L109 95L57 155ZM199 355Q189 286 223 245T324 203Q391 203 436 244T491 355Q501 424 468 465T367 506Q300 506 255 465T199 355Z" />
<glyph unicode="&#xa5;" glyph-name="yen" horiz-adv-x="592" d="M260 177H90L101 255H271L278 303L264 337H113L124 415H232L111 708H246L360 414L550 708H679L476 415H584L573 337H422L398 303L391 255H561L550 177H380L356 0H236L260 177Z" />
<glyph unicode="&#xa6;" glyph-name="brokenbar" horiz-adv-x="222" d="M256 675L207 325H105L154 675H256ZM186 175L137 -175H35L84 175H186Z" />
<glyph unicode="&#xa7;" glyph-name="section" horiz-adv-x="593" d="M477 566Q471 596 447 613T391 630Q376 630 361 626T334 614T312 594T301 564Q297 536 316 518T367 484T435 452T502 414T550 359T561 280Q555 238 526 204T458 152Q484 130 495 100T502 33Q496
-12 471 -45T411 -101T335 -133T254 -144Q218 -144 186 -138T127 -117T80 -80T50 -21L164 31Q167 12 176 -1T200 -24T232 -37T268 -42Q283 -42 300 -39T331 -28T356 -8T369 23Q373 51 353 69T302 102T234 132T167 169T119 221T108 299Q116 354 147 389T224 447Q196
467 183 495T174 561Q180 603 202 634T257 685T327 716T402 726Q431 726 460 721T515 704T560 673T590 625L477 566ZM389 194Q409 204 425 224T445 264Q448 283 442 296T426 319T402 336T376 352L293 394Q267 383 249 368T225 324Q222 306 228 293T245 270T270
253T298 239L389 194Z" />
<glyph unicode="&#xa8;" glyph-name="dieresis" horiz-adv-x="260" d="M39 636Q43 665 67 686T125 708Q158 708 178 688T193 636Q188 605 163 585T105 564Q72 564 54 585T39 636ZM245 636Q249 665 273 686T331 708Q364 708 384 688T399 636Q394 605 369 585T311
564Q278 564 260 585T245 636Z" />
<glyph unicode="&#xa9;" glyph-name="copyright" horiz-adv-x="800" d="M629 297Q618 259 598 231T552 183T494 153T430 143Q383 143 348 159T292 205T263 273T261 357Q267 403 285 441T332 508T400 551T487 567Q555 567 600 531T647 422H553Q551 457 531 470T483
483Q425 483 395 448T357 359Q353 331 356 307T371 265T400 237T445 227Q477 227 502 242T535 297H629ZM77 354Q88 431 127 498T223 616T353 696T502 726Q579 726 642 697T749 617T812 499T821 354Q810 277 772 210T675 92T546 12T397 -18Q320 -18 257 11T150 91T86
209T77 354ZM173 354Q165 294 179 242T224 150T303 89T409 66Q467 66 520 88T617 150T688 241T725 354Q734 414 720 466T675 558T596 619T490 642Q432 642 379 620T282 558T211 467T173 354Z" />
<glyph unicode="&#xaa;" glyph-name="ordfeminine" horiz-adv-x="349" d="M309 470H307Q288 445 257 435T197 425Q184 425 166 428T132 441T106 468T100 513Q105 548 127 568T181 598T247 610T312 613H329L330 621Q332 638 313 646T265 654Q240 654 219 646T178
622L142 675Q172 698 209 709T287 720Q359 720 386 691T405 600L381 431H303L309 470ZM288 553Q276 553 259 552T226 547T198 536T184 516Q182 501 196 493T230 485Q273 485 292 502T315 547L316 553H288Z" />
<glyph unicode="&#xab;" glyph-name="guillemotleft" horiz-adv-x="519" d="M176 248L268 73L185 22L64 248L248 472L316 421L176 248ZM399 248L491 73L408 22L287 248L471 472L539 421L399 248Z" />
<glyph unicode="&#xac;" glyph-name="logicalnot" horiz-adv-x="666" d="M550 342H110L124 444H666L624 147H522L550 342Z" />
<glyph unicode="&#xad;" glyph-name="uni00AD" horiz-adv-x="315" d="M335 195H88L116 297H363L335 195Z" />
<glyph unicode="&#xae;" glyph-name="registered" horiz-adv-x="800" d="M334 553H459Q493 553 524 548T577 531T612 496T619 438Q615 412 605 391T579 354T547 330T514 318L592 163H487L419 313H396L375 163H279L334 553ZM406 391H453Q462 391 473 392T494 397T512
409T522 433Q524 448 519 456T505 469T485 474T465 475H418L406 391ZM77 354Q88 431 127 498T223 616T353 696T502 726Q579 726 642 697T749 617T812 499T821 354Q810 277 772 210T675 92T546 12T397 -18Q320 -18 257 11T150 91T86 209T77 354ZM173 354Q165 294
179 242T224 150T303 89T409 66Q467 66 520 88T617 150T688 241T725 354Q734 414 720 466T675 558T596 619T490 642Q432 642 379 620T282 558T211 467T173 354Z" />
<glyph unicode="&#xaf;" glyph-name="overscore" horiz-adv-x="260" d="M456 595H136L158 673H478L456 595Z" />
<glyph unicode="&#xb0;" glyph-name="degree" horiz-adv-x="400" d="M118 560Q123 593 140 622T181 673T237 707T301 720Q334 720 361 708T407 673T434 622T438 560Q433 527 417 498T376 447T320 413T256 400Q223 400 196 412T150 447T122 498T118 560ZM196 560Q194
543 198 528T212 502T236 485T267 478Q301 478 328 502T360 560Q365 594 345 618T290 642Q273 642 257 636T229 618T208 592T196 560Z" />
<glyph unicode="&#xb1;" glyph-name="plusminus" horiz-adv-x="666" d="M363 574H465L445 431H664L650 329H431L411 186H309L329 329H108L122 431H343L363 574ZM80 134H622L608 32H66L80 134Z" />
<glyph unicode="&#xb2;" glyph-name="twosuperior" horiz-adv-x="385" d="M84 384L286 536Q301 548 317 562T335 591Q337 612 322 621T284 630Q257 630 238 615T214 576L119 582Q134 653 184 686T302 720Q368 720 407 688T437 592Q428 528 363 483L208 375V373H406L394
289H71L84 384Z" />
<glyph unicode="&#xb3;" glyph-name="threesuperior" horiz-adv-x="385" d="M223 552H255Q282 552 304 560T331 597Q333 613 320 621T283 630Q260 630 242 619T216 586L116 606Q128 638 146 659T188 694T239 714T296 720Q326 720 353 713T399 692T429 657T435
606Q430 571 406 546T343 513L342 511Q383 506 401 477T415 411Q410 379 394 355T352 315T296 291T231 283Q200 283 174 289T129 310T98 346T83 401L189 423Q191 400 204 387T244 373Q271 373 291 384T315 421Q317 438 311 447T294 461T266 467T234 468H211L223
552Z" />
<glyph unicode="&#xb4;" glyph-name="acute" horiz-adv-x="260" d="M281 708H417L256 564H162L281 708Z" />
<glyph unicode="&#xb5;" glyph-name="mu" horiz-adv-x="574" d="M322 480L254 237Q248 217 243 193T240 147T256 111T302 96Q332 96 355 106T397 133T427 172T446 218L520 480H640L506 0H392L412 77H410Q384 41 342 15T239 -12Q206 -12 186 -5L122 -228H2L202 480H322Z" />
<glyph unicode="&#xb6;" glyph-name="paragraph" horiz-adv-x="600" d="M293 338Q244 338 207 351T144 389T109 447T104 520Q111 570 132 606T188 664T266 697T363 708H632L515 -126H425L532 636H425L318 -126H228L293 338Z" />
<glyph unicode="&#xb7;" glyph-name="middot" horiz-adv-x="296" d="M148 291Q152 307 162 321T187 346T217 363T250 369Q282 369 300 347T310 293Q305 277 295 263T271 238T241 221T208 215Q176 215 158 237T148 291Z" />
<glyph unicode="&#xb8;" glyph-name="cedilla" horiz-adv-x="260" d="M168 -60Q190 -60 211 -62T249 -72T273 -97T277 -143Q273 -170 258 -189T220 -219T173 -235T125 -240Q68 -240 23 -212L51 -166Q86 -186 130 -186Q138 -186 148 -184T168 -178T184 -165T193
-144Q196 -125 180 -117T147 -108Q137 -108 128 -110T109 -115L86 -90L161 0H219L168 -60Z" />
<glyph unicode="&#xb9;" glyph-name="onesuperior" horiz-adv-x="385" d="M264 606L169 531L123 597L290 714H381L321 289H219L264 606Z" />
<glyph unicode="&#xba;" glyph-name="ordmasculine" horiz-adv-x="397" d="M256 425Q221 425 192 435T144 465T115 512T111 572Q115 605 132 632T174 678T231 709T298 720Q333 720 362 709T412 679T441 632T446 572Q441 539 424 512T382 466T324 436T256 425ZM266
497Q287 497 304 504T333 522T352 546T362 572Q364 585 361 598T348 623T324 641T288 648Q267 648 250 641T221 623T202 599T193 572Q191 559 194 546T207 522T230 504T266 497Z" />
<glyph unicode="&#xbb;" glyph-name="guillemotright" horiz-adv-x="519" d="M411 246L320 421L403 472L523 246L340 22L272 73L411 246ZM188 246L97 421L180 472L300 246L117 22L49 73L188 246Z" />
<glyph unicode="&#xbc;" glyph-name="onequarter" horiz-adv-x="889" d="M253 606L158 531L112 597L279 714H370L310 289H208L253 606ZM716 85H518L529 163L754 425H866L830 169H883L871 85H818L807 0H705L716 85ZM747 303L746 305L632 169H728L747 303ZM704 740L781
702L262 -32L184 6L704 740Z" />
<glyph unicode="&#xbd;" glyph-name="onehalf" horiz-adv-x="889" d="M256 606L161 531L115 597L282 714H373L313 289H211L256 606ZM548 95L748 247Q763 259 779 273T797 302Q800 323 785 332T746 341Q719 341 701 326T677 287L582 293Q596 364 646 397T764 431Q830
431 869 399T899 303Q890 238 826 194L671 86L670 84H868L857 0H535L548 95ZM706 740L783 702L264 -32L186 6L706 740Z" />
<glyph unicode="&#xbe;" glyph-name="threequarters" horiz-adv-x="889" d="M762 335H760L617 159V157H737L762 335ZM219 552H251Q278 552 300 560T327 597Q329 613 316 621T279 630Q256 630 238 619T212 586L112 606Q124 638 142 659T184 694T235 714T292 720Q322
720 349 713T395 692T425 657T431 606Q426 571 402 546T339 513L338 511Q379 506 397 477T411 411Q406 379 390 355T348 315T292 291T227 283Q196 283 170 289T125 310T94 346T79 401L185 423Q187 400 200 387T240 373Q267 373 287 384T311 421Q313 438 307 447T290
461T262 467T230 468H207L219 552ZM723 85H525L536 163L761 425H873L837 169H889L877 85H825L814 0H712L723 85ZM731 740L808 702L289 -32L211 6L731 740Z" />
<glyph unicode="&#xbf;" glyph-name="questiondown" horiz-adv-x="519" d="M347 277L340 222Q337 199 332 184T319 157T299 133T269 105L181 27Q153 2 147 -38Q142 -77 164 -101T225 -126Q267 -126 298 -98T339 -28L465 -38Q440 -134 370 -187T204 -240Q159 -240
123 -228T61 -190T25 -129T20 -45Q24 -12 36 13T67 59T107 99T155 139Q171 152 182 162T202 182T214 206T222 239L227 277H347ZM387 416Q382 384 356 361T296 338Q280 338 267 344T244 360T230 384T227 414Q232 446 258 469T318 492Q334 492 347 486T370 470T384
446T387 416Z" />
<glyph unicode="&#xc0;" glyph-name="Agrave" horiz-adv-x="722" d="M513 756H419L298 900H434L513 756ZM407 708H516L722 0H578L534 162H227L141 0H0L407 708ZM505 270L437 558L285 270H505Z" />
<glyph unicode="&#xc1;" glyph-name="Aacute" horiz-adv-x="722" d="M538 900H674L513 756H419L538 900ZM407 708H516L722 0H578L534 162H227L141 0H0L407 708ZM505 270L437 558L285 270H505Z" />
<glyph unicode="&#xc2;" glyph-name="Acircumflex" horiz-adv-x="722" d="M534 756L477 846L396 756H284L419 900H554L648 756H534ZM407 708H516L722 0H578L534 162H227L141 0H0L407 708ZM505 270L437 558L285 270H505Z" />
<glyph unicode="&#xc3;" glyph-name="Atilde" horiz-adv-x="722" d="M282 760Q289 784 300 807T326 847T363 876T412 887Q432 887 452 881T490 869T523 856T551 850Q571 850 583 862T603 892H669Q661 868 651 845T625 805T588 776T539 765Q519 765 499 771T461
784T428 797T400 803Q380 803 368 790T348 760H282ZM407 708H516L722 0H578L534 162H227L141 0H0L407 708ZM505 270L437 558L285 270H505Z" />
<glyph unicode="&#xc4;" glyph-name="Adieresis" horiz-adv-x="722" d="M296 828Q300 857 324 878T382 900Q415 900 435 880T450 828Q445 797 420 777T362 756Q329 756 311 777T296 828ZM502 828Q506 857 530 878T588 900Q621 900 641 880T656 828Q651 797 626
777T568 756Q535 756 517 777T502 828ZM407 708H516L722 0H578L534 162H227L141 0H0L407 708ZM505 270L437 558L285 270H505Z" />
<glyph unicode="&#xc5;" glyph-name="Aring" horiz-adv-x="722" d="M583 837Q576 792 542 764T463 735Q418 735 392 763T372 836Q379 880 413 909T492 939Q537 939 563 911T583 837ZM535 837Q538 860 523 875T485 891Q462 891 443 876T421 837Q417 814 432 799T470
783Q493 783 512 798T535 837ZM407 708H516L722 0H578L534 162H227L141 0H0L407 708ZM505 270L437 558L285 270H505Z" />
<glyph unicode="&#xc6;" glyph-name="AE" horiz-adv-x="1000" d="M555 186H287L147 0H-6L546 708H1042L1026 594H738L714 420H984L968 306H698L671 114H971L955 0H529L555 186ZM570 294L612 594H597L368 294H570Z" />
<glyph unicode="&#xc7;" glyph-name="Ccedilla" horiz-adv-x="685" d="M641 542Q607 584 573 598T502 612Q447 612 400 593T315 539T254 458T223 359Q215 302 225 254T263 171T332 116T429 96Q472 96 515 116T600 182L694 108Q637 42 566 13T416 -18L381 -60Q403
-60 424 -62T462 -72T486 -97T490 -143Q486 -170 471 -189T433 -219T386 -235T338 -240Q281 -240 236 -212L264 -166Q299 -186 343 -186Q351 -186 361 -184T381 -178T397 -165T406 -144Q409 -125 393 -117T360 -108Q350 -108 341 -110T322 -115L299 -90L360 -15Q289
-7 234 23T144 100T94 211T90 351Q102 436 139 505T233 624T362 699T517 726Q589 726 646 701T749 614L641 542Z" />
<glyph unicode="&#xc8;" glyph-name="Egrave" horiz-adv-x="611" d="M458 756H364L243 900H379L458 756ZM178 708H647L631 594H288L264 420H589L573 306H248L221 114H582L566 0H79L178 708Z" />
<glyph unicode="&#xc9;" glyph-name="Eacute" horiz-adv-x="611" d="M483 900H619L458 756H364L483 900ZM178 708H647L631 594H288L264 420H589L573 306H248L221 114H582L566 0H79L178 708Z" />
<glyph unicode="&#xca;" glyph-name="Ecircumflex" horiz-adv-x="611" d="M479 756L422 846L341 756H229L364 900H499L593 756H479ZM178 708H647L631 594H288L264 420H589L573 306H248L221 114H582L566 0H79L178 708Z" />
<glyph unicode="&#xcb;" glyph-name="Edieresis" horiz-adv-x="611" d="M241 828Q245 857 269 878T327 900Q360 900 380 880T395 828Q390 797 365 777T307 756Q274 756 256 777T241 828ZM447 828Q451 857 475 878T533 900Q566 900 586 880T601 828Q596 797 571
777T513 756Q480 756 462 777T447 828ZM178 708H647L631 594H288L264 420H589L573 306H248L221 114H582L566 0H79L178 708Z" />
<glyph unicode="&#xcc;" glyph-name="Igrave" horiz-adv-x="278" d="M291 756H197L76 900H212L291 756ZM175 708H301L202 0H76L175 708Z" />
<glyph unicode="&#xcd;" glyph-name="Iacute" horiz-adv-x="278" d="M316 900H452L291 756H197L316 900ZM175 708H301L202 0H76L175 708Z" />
<glyph unicode="&#xce;" glyph-name="Icircumflex" horiz-adv-x="278" d="M312 756L255 846L174 756H62L197 900H332L426 756H312ZM175 708H301L202 0H76L175 708Z" />
<glyph unicode="&#xcf;" glyph-name="Idieresis" horiz-adv-x="278" d="M74 828Q78 857 102 878T160 900Q193 900 213 880T228 828Q223 797 198 777T140 756Q107 756 89 777T74 828ZM280 828Q284 857 308 878T366 900Q399 900 419 880T434 828Q429 797 404 777T346
756Q313 756 295 777T280 828ZM175 708H301L202 0H76L175 708Z" />
<glyph unicode="&#xd0;" glyph-name="Eth" horiz-adv-x="759" d="M124 324H58L70 408H136L178 708H457Q527 708 589 687T694 621T759 511T767 354Q754 263 710 197T606 87T477 22T343 0H79L124 324ZM315 114Q374 114 428 127T525 169T597 243T635 354Q644 418
631 464T586 538T508 580T403 594H288L262 408H478L466 324H250L221 114H315Z" />
<glyph unicode="&#xd1;" glyph-name="Ntilde" horiz-adv-x="796" d="M319 760Q326 784 337 807T363 847T400 876T449 887Q469 887 489 881T527 869T560 856T588 850Q608 850 620 862T640 892H706Q698 868 688 845T662 805T625 776T576 765Q556 765 536 771T498
784T465 797T437 803Q417 803 405 790T385 760H319ZM178 708H345L614 182H616L690 708H816L717 0H557L283 543H281L205 0H79L178 708Z" />
<glyph unicode="&#xd2;" glyph-name="Ograve" horiz-adv-x="833" d="M569 756H475L354 900H490L569 756ZM90 351Q102 436 139 505T233 624T362 699T517 726Q600 727 665 702T774 627T835 509T841 355Q829 272 792 204T698 87T568 11T412 -18Q330 -18 265 8T158
83T97 200T90 351ZM223 359Q215 302 225 254T263 171T332 116T429 96Q484 96 532 116T617 171T678 254T710 359Q717 412 707 458T669 538T600 592T502 612Q447 612 400 593T315 539T254 458T223 359Z" />
<glyph unicode="&#xd3;" glyph-name="Oacute" horiz-adv-x="833" d="M594 900H730L569 756H475L594 900ZM90 351Q102 436 139 505T233 624T362 699T517 726Q600 727 665 702T774 627T835 509T841 355Q829 272 792 204T698 87T568 11T412 -18Q330 -18 265 8T158
83T97 200T90 351ZM223 359Q215 302 225 254T263 171T332 116T429 96Q484 96 532 116T617 171T678 254T710 359Q717 412 707 458T669 538T600 592T502 612Q447 612 400 593T315 539T254 458T223 359Z" />
<glyph unicode="&#xd4;" glyph-name="Ocircumflex" horiz-adv-x="833" d="M590 756L533 846L452 756H340L475 900H610L704 756H590ZM90 351Q102 436 139 505T233 624T362 699T517 726Q600 727 665 702T774 627T835 509T841 355Q829 272 792 204T698 87T568 11T412
-18Q330 -18 265 8T158 83T97 200T90 351ZM223 359Q215 302 225 254T263 171T332 116T429 96Q484 96 532 116T617 171T678 254T710 359Q717 412 707 458T669 538T600 592T502 612Q447 612 400 593T315 539T254 458T223 359Z" />
<glyph unicode="&#xd5;" glyph-name="Otilde" horiz-adv-x="833" d="M338 760Q345 784 356 807T382 847T419 876T468 887Q488 887 508 881T546 869T579 856T607 850Q627 850 639 862T659 892H725Q717 868 707 845T681 805T644 776T595 765Q575 765 555 771T517
784T484 797T456 803Q436 803 424 790T404 760H338ZM90 351Q102 436 139 505T233 624T362 699T517 726Q600 727 665 702T774 627T835 509T841 355Q829 272 792 204T698 87T568 11T412 -18Q330 -18 265 8T158 83T97 200T90 351ZM223 359Q215 302 225 254T263 171T332
116T429 96Q484 96 532 116T617 171T678 254T710 359Q717 412 707 458T669 538T600 592T502 612Q447 612 400 593T315 539T254 458T223 359Z" />
<glyph unicode="&#xd6;" glyph-name="Odieresis" horiz-adv-x="833" d="M352 828Q356 857 380 878T438 900Q471 900 491 880T506 828Q501 797 476 777T418 756Q385 756 367 777T352 828ZM558 828Q562 857 586 878T644 900Q677 900 697 880T712 828Q707 797 682
777T624 756Q591 756 573 777T558 828ZM90 351Q102 436 139 505T233 624T362 699T517 726Q600 727 665 702T774 627T835 509T841 355Q829 272 792 204T698 87T568 11T412 -18Q330 -18 265 8T158 83T97 200T90 351ZM223 359Q215 302 225 254T263 171T332 116T429
96Q484 96 532 116T617 171T678 254T710 359Q717 412 707 458T669 538T600 592T502 612Q447 612 400 593T315 539T254 458T223 359Z" />
<glyph unicode="&#xd7;" glyph-name="multiply" horiz-adv-x="666" d="M385 374L593 556L653 486L446 305L605 119L521 45L363 226L157 45L93 118L304 300L146 486L228 557L385 374Z" />
<glyph unicode="&#xd8;" glyph-name="Oslash" horiz-adv-x="833" d="M638 567Q582 612 502 612Q447 612 400 593T315 539T254 458T223 359Q216 312 222 271T246 197L638 567ZM284 148Q312 123 348 110T429 96Q484 96 532 116T617 171T678 254T710 359Q724 456
679 521L284 148ZM881 712L781 618Q821 569 837 503T841 355Q829 272 792 204T698 87T568 11T412 -18Q343 -18 286 1T186 56L88 -36L44 7L145 101Q109 149 94 212T90 351Q102 436 139 505T233 624T362 699T517 726Q584 728 639 711T737 661L838 755L881 712Z" />
<glyph unicode="&#xd9;" glyph-name="Ugrave" horiz-adv-x="722" d="M513 756H419L298 900H434L513 756ZM682 260Q673 196 644 145T572 57T474 2T358 -18Q297 -18 248 1T165 57T118 144T112 260L175 708H301L239 264Q235 238 239 210T258 157T301 118T375 102Q420
102 453 117T507 157T541 209T557 264L619 708H745L682 260Z" />
<glyph unicode="&#xda;" glyph-name="Uacute" horiz-adv-x="722" d="M538 900H674L513 756H419L538 900ZM682 260Q673 196 644 145T572 57T474 2T358 -18Q297 -18 248 1T165 57T118 144T112 260L175 708H301L239 264Q235 238 239 210T258 157T301 118T375 102Q420
102 453 117T507 157T541 209T557 264L619 708H745L682 260Z" />
<glyph unicode="&#xdb;" glyph-name="Ucircumflex" horiz-adv-x="722" d="M534 756L477 846L396 756H284L419 900H554L648 756H534ZM682 260Q673 196 644 145T572 57T474 2T358 -18Q297 -18 248 1T165 57T118 144T112 260L175 708H301L239 264Q235 238 239 210T258
157T301 118T375 102Q420 102 453 117T507 157T541 209T557 264L619 708H745L682 260Z" />
<glyph unicode="&#xdc;" glyph-name="Udieresis" horiz-adv-x="722" d="M296 828Q300 857 324 878T382 900Q415 900 435 880T450 828Q445 797 420 777T362 756Q329 756 311 777T296 828ZM502 828Q506 857 530 878T588 900Q621 900 641 880T656 828Q651 797 626
777T568 756Q535 756 517 777T502 828ZM682 260Q673 196 644 145T572 57T474 2T358 -18Q297 -18 248 1T165 57T118 144T112 260L175 708H301L239 264Q235 238 239 210T258 157T301 118T375 102Q420 102 453 117T507 157T541 209T557 264L619 708H745L682 260Z"
/>
<glyph unicode="&#xdd;" glyph-name="Yacute" horiz-adv-x="630" d="M492 900H628L467 756H373L492 900ZM294 303L85 708H243L377 426L593 708H743L420 303L378 0H252L294 303Z" />
<glyph unicode="&#xde;" glyph-name="Thorn" horiz-adv-x="611" d="M178 708H304L285 571H397Q448 571 494 561T572 528T621 465T629 366Q620 299 591 258T520 195T425 164T316 156H226L205 0H79L178 708ZM318 264Q345 264 374 266T429 278T473 308T497 364Q501
397 490 416T459 446T412 460T360 463H270L242 264H318Z" />
<glyph unicode="&#xdf;" glyph-name="germandbls" horiz-adv-x="611" d="M127 511Q146 647 214 707T403 768Q446 768 484 757T548 722T588 664T594 583Q586 528 553 487T466 425V423Q505 418 532 400T576 355T598 292T597 218Q590 167 567 125T508 52T427 5T330
-12Q309 -12 288 -10T247 -1L262 100Q274 94 287 92T315 90Q346 90 374 99T424 127T460 170T479 228Q489 299 452 335T347 371H333L347 473H355Q400 473 433 497T472 567Q478 609 452 634T384 660Q324 660 292 626T251 539L176 0H56L127 511Z" />
<glyph unicode="&#xe0;" glyph-name="agrave" horiz-adv-x="537" d="M395 564H301L180 708H316L395 564ZM377 66H374Q342 25 300 7T209 -12Q176 -12 146 -3T93 24T60 69T54 132Q62 190 97 223T180 274T281 295T380 299H410L411 312Q418 357 390 379T314 402Q276
402 241 389T179 352L125 415Q170 456 226 474T340 492Q391 492 424 481T478 451T508 410T519 362T519 316T514 276L476 0H368L377 66ZM391 215H366Q341 215 310 213T250 204T200 182T175 141Q173 124 179 113T196 93T221 82T250 78Q312 78 346 107T387 188L391
215Z" />
<glyph unicode="&#xe1;" glyph-name="aacute" horiz-adv-x="537" d="M420 708H556L395 564H301L420 708ZM377 66H374Q342 25 300 7T209 -12Q176 -12 146 -3T93 24T60 69T54 132Q62 190 97 223T180 274T281 295T380 299H410L411 312Q418 357 390 379T314 402Q276
402 241 389T179 352L125 415Q170 456 226 474T340 492Q391 492 424 481T478 451T508 410T519 362T519 316T514 276L476 0H368L377 66ZM391 215H366Q341 215 310 213T250 204T200 182T175 141Q173 124 179 113T196 93T221 82T250 78Q312 78 346 107T387 188L391
215Z" />
<glyph unicode="&#xe2;" glyph-name="acircumflex" horiz-adv-x="537" d="M416 564L359 654L278 564H166L301 708H436L530 564H416ZM377 66H374Q342 25 300 7T209 -12Q176 -12 146 -3T93 24T60 69T54 132Q62 190 97 223T180 274T281 295T380 299H410L411 312Q418
357 390 379T314 402Q276 402 241 389T179 352L125 415Q170 456 226 474T340 492Q391 492 424 481T478 451T508 410T519 362T519 316T514 276L476 0H368L377 66ZM391 215H366Q341 215 310 213T250 204T200 182T175 141Q173 124 179 113T196 93T221 82T250 78Q312
78 346 107T387 188L391 215Z" />
<glyph unicode="&#xe3;" glyph-name="atilde" horiz-adv-x="537" d="M164 568Q171 592 182 615T208 655T245 684T294 695Q314 695 334 689T372 677T405 664T433 658Q453 658 465 670T485 700H551Q543 676 533 653T507 613T470 584T421 573Q401 573 381 579T343
592T310 605T282 611Q262 611 250 598T230 568H164ZM377 66H374Q342 25 300 7T209 -12Q176 -12 146 -3T93 24T60 69T54 132Q62 190 97 223T180 274T281 295T380 299H410L411 312Q418 357 390 379T314 402Q276 402 241 389T179 352L125 415Q170 456 226 474T340
492Q391 492 424 481T478 451T508 410T519 362T519 316T514 276L476 0H368L377 66ZM391 215H366Q341 215 310 213T250 204T200 182T175 141Q173 124 179 113T196 93T221 82T250 78Q312 78 346 107T387 188L391 215Z" />
<glyph unicode="&#xe4;" glyph-name="adieresis" horiz-adv-x="537" d="M178 636Q182 665 206 686T264 708Q297 708 317 688T332 636Q327 605 302 585T244 564Q211 564 193 585T178 636ZM384 636Q388 665 412 686T470 708Q503 708 523 688T538 636Q533 605 508
585T450 564Q417 564 399 585T384 636ZM377 66H374Q342 25 300 7T209 -12Q176 -12 146 -3T93 24T60 69T54 132Q62 190 97 223T180 274T281 295T380 299H410L411 312Q418 357 390 379T314 402Q276 402 241 389T179 352L125 415Q170 456 226 474T340 492Q391 492
424 481T478 451T508 410T519 362T519 316T514 276L476 0H368L377 66ZM391 215H366Q341 215 310 213T250 204T200 182T175 141Q173 124 179 113T196 93T221 82T250 78Q312 78 346 107T387 188L391 215Z" />
<glyph unicode="&#xe5;" glyph-name="aring" horiz-adv-x="537" d="M466 655Q459 610 425 582T346 553Q301 553 275 581T255 654Q262 698 296 727T375 757Q420 757 446 729T466 655ZM418 655Q421 678 406 693T368 709Q345 709 326 694T304 655Q300 632 315 617T353
601Q376 601 395 616T418 655ZM377 66H374Q342 25 300 7T209 -12Q176 -12 146 -3T93 24T60 69T54 132Q62 190 97 223T180 274T281 295T380 299H410L411 312Q418 357 390 379T314 402Q276 402 241 389T179 352L125 415Q170 456 226 474T340 492Q391 492 424 481T478
451T508 410T519 362T519 316T514 276L476 0H368L377 66ZM391 215H366Q341 215 310 213T250 204T200 182T175 141Q173 124 179 113T196 93T221 82T250 78Q312 78 346 107T387 188L391 215Z" />
<glyph unicode="&#xe6;" glyph-name="ae" horiz-adv-x="852" d="M844 204H494Q489 175 496 152T519 112T554 87T593 78Q638 78 671 96T731 143L805 84Q758 33 703 11T581 -12Q520 -12 477 13T414 74Q376 25 323 7T209 -11Q177 -11 147 -3T95 23T61 68T54 133Q66
218 131 253T308 288H406Q414 341 391 372T314 403Q276 403 241 390T179 353L125 416Q171 457 227 475T340 493Q382 495 423 478T489 422Q522 454 562 473T654 492Q712 492 753 472T817 418T848 337T849 237L844 204ZM250 79Q280 79 305 89T348 114T378 150T392
192L394 204H334Q309 204 283 202T233 193T194 174T175 141Q173 124 180 112T198 93T224 82T250 79ZM740 288Q745 339 719 370T640 402Q590 402 554 370T508 288H740Z" />
<glyph unicode="&#xe7;" glyph-name="ccedilla" horiz-adv-x="482" d="M443 336Q425 358 404 371T358 384Q325 384 298 372T249 340T215 294T197 240Q193 212 199 186T220 140T260 108T318 96Q346 96 371 107T417 141L485 55Q464 37 440 25T390 4T343 -8T305 -12L264
-60Q286 -60 307 -62T345 -72T369 -97T373 -143Q369 -170 354 -189T316 -219T269 -235T221 -240Q164 -240 119 -212L147 -166Q182 -186 226 -186Q234 -186 244 -184T264 -178T280 -165T289 -144Q292 -125 276 -117T243 -108Q233 -108 224 -110T205 -115L182 -90L251
-7Q207 1 172 22T114 75T80 148T77 240Q85 297 112 343T179 423T269 474T374 492Q420 492 464 475T537 419L443 336Z" />
<glyph unicode="&#xe8;" glyph-name="egrave" horiz-adv-x="574" d="M413 564H319L198 708H334L413 564ZM191 198Q190 171 198 150T222 115T258 92T304 84Q349 84 382 102T442 149L519 84Q470 32 415 10T303 -12Q249 -12 204 6T128 57T83 136T77 240Q85 297 112
343T179 423T269 474T374 492Q475 492 527 425T562 231L557 198H191ZM450 288Q457 341 429 371T344 402Q290 402 254 371T204 288H450Z" />
<glyph unicode="&#xe9;" glyph-name="eacute" horiz-adv-x="574" d="M438 708H574L413 564H319L438 708ZM191 198Q190 171 198 150T222 115T258 92T304 84Q349 84 382 102T442 149L519 84Q470 32 415 10T303 -12Q249 -12 204 6T128 57T83 136T77 240Q85 297 112
343T179 423T269 474T374 492Q475 492 527 425T562 231L557 198H191ZM450 288Q457 341 429 371T344 402Q290 402 254 371T204 288H450Z" />
<glyph unicode="&#xea;" glyph-name="ecircumflex" horiz-adv-x="574" d="M434 564L377 654L296 564H184L319 708H454L548 564H434ZM191 198Q190 171 198 150T222 115T258 92T304 84Q349 84 382 102T442 149L519 84Q470 32 415 10T303 -12Q249 -12 204 6T128 57T83
136T77 240Q85 297 112 343T179 423T269 474T374 492Q475 492 527 425T562 231L557 198H191ZM450 288Q457 341 429 371T344 402Q290 402 254 371T204 288H450Z" />
<glyph unicode="&#xeb;" glyph-name="edieresis" horiz-adv-x="574" d="M196 636Q200 665 224 686T282 708Q315 708 335 688T350 636Q345 605 320 585T262 564Q229 564 211 585T196 636ZM402 636Q406 665 430 686T488 708Q521 708 541 688T556 636Q551 605 526
585T468 564Q435 564 417 585T402 636ZM191 198Q190 171 198 150T222 115T258 92T304 84Q349 84 382 102T442 149L519 84Q470 32 415 10T303 -12Q249 -12 204 6T128 57T83 136T77 240Q85 297 112 343T179 423T269 474T374 492Q475 492 527 425T562 231L557 198H191ZM450
288Q457 341 429 371T344 402Q290 402 254 371T204 288H450Z" />
<glyph unicode="&#xec;" glyph-name="igrave" horiz-adv-x="260" d="M268 564H174L53 708H189L268 564ZM137 480H257L190 0H70L137 480Z" />
<glyph unicode="&#xed;" glyph-name="iacute" horiz-adv-x="260" d="M270 708H406L245 564H151L270 708ZM137 480H257L190 0H70L137 480Z" />
<glyph unicode="&#xee;" glyph-name="icircumflex" horiz-adv-x="260" d="M277 564L220 654L139 564H27L162 708H297L391 564H277ZM137 480H257L190 0H70L137 480Z" />
<glyph unicode="&#xef;" glyph-name="idieresis" horiz-adv-x="260" d="M39 636Q43 665 67 686T125 708Q158 708 178 688T193 636Q188 605 163 585T105 564Q72 564 54 585T39 636ZM245 636Q249 665 273 686T331 708Q364 708 384 688T399 636Q394 605 369 585T311
564Q278 564 260 585T245 636ZM137 480H257L190 0H70L137 480Z" />
<glyph unicode="&#xf0;" glyph-name="eth" horiz-adv-x="610" d="M606 712L481 658Q511 619 537 576T581 485T605 385T604 277Q595 214 572 161T510 70T419 10T303 -12Q249 -12 204 6T128 57T83 136T77 240Q85 297 112 343T178 423T265 474T364 492Q397 492 425
484T472 454L475 456Q455 498 428 535T370 608L367 611L254 562L202 619L317 669Q311 676 302 684T284 702T265 719T249 734L357 792Q381 771 401 750T431 717L549 768L606 712ZM318 96Q351 96 379 108T428 140T462 186T479 240Q483 268 477 294T456 340T416 372T358
384Q325 384 298 372T249 340T215 294T197 240Q193 212 199 186T220 140T260 108T318 96Z" />
<glyph unicode="&#xf1;" glyph-name="ntilde" horiz-adv-x="574" d="M182 568Q189 592 200 615T226 655T263 684T312 695Q332 695 352 689T390 677T423 664T451 658Q471 658 483 670T503 700H569Q561 676 551 653T525 613T488 584T439 573Q419 573 399 579T361
592T328 605T300 611Q280 611 268 598T248 568H182ZM135 480H249L238 403H240Q262 439 301 465T400 492Q448 492 479 476T528 434T549 374T548 303L506 0H386L420 243Q423 263 424 287T420 333T398 369T351 384Q321 384 299 374T262 347T237 308T224 262L188 0H68L135
480Z" />
<glyph unicode="&#xf2;" glyph-name="ograve" horiz-adv-x="610" d="M431 564H337L216 708H352L431 564ZM77 240Q85 297 112 343T179 423T269 474T374 492Q428 492 473 474T548 423T593 344T599 240Q591 183 564 137T498 57T408 6T303 -12Q249 -12 204 6T128 57T83
136T77 240ZM197 240Q193 212 199 186T220 140T260 108T318 96Q351 96 379 108T428 140T462 186T479 240Q483 268 477 294T456 340T416 372T358 384Q325 384 298 372T249 340T215 294T197 240Z" />
<glyph unicode="&#xf3;" glyph-name="oacute" horiz-adv-x="610" d="M456 708H592L431 564H337L456 708ZM77 240Q85 297 112 343T179 423T269 474T374 492Q428 492 473 474T548 423T593 344T599 240Q591 183 564 137T498 57T408 6T303 -12Q249 -12 204 6T128 57T83
136T77 240ZM197 240Q193 212 199 186T220 140T260 108T318 96Q351 96 379 108T428 140T462 186T479 240Q483 268 477 294T456 340T416 372T358 384Q325 384 298 372T249 340T215 294T197 240Z" />
<glyph unicode="&#xf4;" glyph-name="ocircumflex" horiz-adv-x="610" d="M452 564L395 654L314 564H202L337 708H472L566 564H452ZM77 240Q85 297 112 343T179 423T269 474T374 492Q428 492 473 474T548 423T593 344T599 240Q591 183 564 137T498 57T408 6T303
-12Q249 -12 204 6T128 57T83 136T77 240ZM197 240Q193 212 199 186T220 140T260 108T318 96Q351 96 379 108T428 140T462 186T479 240Q483 268 477 294T456 340T416 372T358 384Q325 384 298 372T249 340T215 294T197 240Z" />
<glyph unicode="&#xf5;" glyph-name="otilde" horiz-adv-x="610" d="M200 568Q207 592 218 615T244 655T281 684T330 695Q350 695 370 689T408 677T441 664T469 658Q489 658 501 670T521 700H587Q579 676 569 653T543 613T506 584T457 573Q437 573 417 579T379
592T346 605T318 611Q298 611 286 598T266 568H200ZM77 240Q85 297 112 343T179 423T269 474T374 492Q428 492 473 474T548 423T593 344T599 240Q591 183 564 137T498 57T408 6T303 -12Q249 -12 204 6T128 57T83 136T77 240ZM197 240Q193 212 199 186T220 140T260
108T318 96Q351 96 379 108T428 140T462 186T479 240Q483 268 477 294T456 340T416 372T358 384Q325 384 298 372T249 340T215 294T197 240Z" />
<glyph unicode="&#xf6;" glyph-name="odieresis" horiz-adv-x="610" d="M214 636Q218 665 242 686T300 708Q333 708 353 688T368 636Q363 605 338 585T280 564Q247 564 229 585T214 636ZM420 636Q424 665 448 686T506 708Q539 708 559 688T574 636Q569 605 544
585T486 564Q453 564 435 585T420 636ZM77 240Q85 297 112 343T179 423T269 474T374 492Q428 492 473 474T548 423T593 344T599 240Q591 183 564 137T498 57T408 6T303 -12Q249 -12 204 6T128 57T83 136T77 240ZM197 240Q193 212 199 186T220 140T260 108T318 96Q351
96 379 108T428 140T462 186T479 240Q483 268 477 294T456 340T416 372T358 384Q325 384 298 372T249 340T215 294T197 240Z" />
<glyph unicode="&#xf7;" glyph-name="divide" horiz-adv-x="666" d="M653 354L639 252H97L111 354H653ZM325 483Q330 514 355 536T411 558Q442 558 461 536T475 483Q471 452 446 430T390 408Q359 408 340 430T325 483ZM275 123Q280 154 304 176T360 198Q391 198
410 176T425 123Q420 92 395 70T339 48Q308 48 289 70T275 123Z" />
<glyph unicode="&#xf8;" glyph-name="oslash" horiz-adv-x="610" d="M434 360Q404 384 358 384Q325 384 298 372T249 340T215 294T197 240Q191 195 209 160L434 360ZM243 119Q272 96 318 96Q351 96 379 108T428 140T462 186T479 240Q485 284 469 318L243 119ZM645
474L565 403Q587 371 596 330T599 240Q591 183 564 137T498 57T408 6T303 -12Q257 -12 219 1T151 37L71 -34L36 7L113 75Q90 107 80 148T77 240Q85 297 112 343T179 423T269 474T374 492Q420 492 459 479T528 442L609 514L645 474Z" />
<glyph unicode="&#xf9;" glyph-name="ugrave" horiz-adv-x="574" d="M413 564H319L198 708H334L413 564ZM506 0H392L402 77H400Q379 41 340 15T241 -12Q193 -12 162 3T113 45T92 106T92 177L135 480H255L221 237Q218 217 217 193T220 147T241 111T289 96Q319 96
341 106T378 133T403 172T416 218L453 480H573L506 0Z" />
<glyph unicode="&#xfa;" glyph-name="uacute" horiz-adv-x="574" d="M438 708H574L413 564H319L438 708ZM506 0H392L402 77H400Q379 41 340 15T241 -12Q193 -12 162 3T113 45T92 106T92 177L135 480H255L221 237Q218 217 217 193T220 147T241 111T289 96Q319 96
341 106T378 133T403 172T416 218L453 480H573L506 0Z" />
<glyph unicode="&#xfb;" glyph-name="ucircumflex" horiz-adv-x="574" d="M434 564L377 654L296 564H184L319 708H454L548 564H434ZM506 0H392L402 77H400Q379 41 340 15T241 -12Q193 -12 162 3T113 45T92 106T92 177L135 480H255L221 237Q218 217 217 193T220
147T241 111T289 96Q319 96 341 106T378 133T403 172T416 218L453 480H573L506 0Z" />
<glyph unicode="&#xfc;" glyph-name="udieresis" horiz-adv-x="574" d="M196 636Q200 665 224 686T282 708Q315 708 335 688T350 636Q345 605 320 585T262 564Q229 564 211 585T196 636ZM402 636Q406 665 430 686T488 708Q521 708 541 688T556 636Q551 605 526
585T468 564Q435 564 417 585T402 636ZM506 0H392L402 77H400Q379 41 340 15T241 -12Q193 -12 162 3T113 45T92 106T92 177L135 480H255L221 237Q218 217 217 193T220 147T241 111T289 96Q319 96 341 106T378 133T403 172T416 218L453 480H573L506 0Z" />
<glyph unicode="&#xfd;" glyph-name="yacute" horiz-adv-x="519" d="M411 708H547L386 564H292L411 708ZM70 480H202L289 147H291L458 480H583L274 -103Q256 -137 237 -162T195 -205T142 -231T72 -240Q24 -240 -18 -228L12 -120Q26 -125 40 -128T71 -132Q93 -132
108 -128T135 -116T156 -94T176 -61L207 -4L70 480Z" />
<glyph unicode="&#xfe;" glyph-name="thorn" horiz-adv-x="630" d="M174 756H294L246 418H248Q275 454 321 473T418 492Q473 492 514 473T581 419T616 339T619 240Q611 187 588 141T530 61T449 8T352 -12Q318 -12 293 -5T250 13T219 36T199 61H196L155 -228H35L174
756ZM499 240Q503 268 497 294T476 340T436 372T378 384Q345 384 318 372T269 340T235 294T217 240Q213 212 219 186T240 140T280 108T338 96Q371 96 399 108T448 140T482 186T499 240Z" />
<glyph unicode="&#xff;" glyph-name="ydieresis" horiz-adv-x="519" d="M169 636Q173 665 197 686T255 708Q288 708 308 688T323 636Q318 605 293 585T235 564Q202 564 184 585T169 636ZM375 636Q379 665 403 686T461 708Q494 708 514 688T529 636Q524 605 499
585T441 564Q408 564 390 585T375 636ZM70 480H202L289 147H291L458 480H583L274 -103Q256 -137 237 -162T195 -205T142 -231T72 -240Q24 -240 -18 -228L12 -120Q26 -125 40 -128T71 -132Q93 -132 108 -128T135 -116T156 -94T176 -61L207 -4L70 480Z" />
<glyph unicode="&#x131;" glyph-name="dotlessi" horiz-adv-x="260" d="M137 480H257L190 0H70L137 480Z" />
<glyph unicode="&#x141;" glyph-name="Lslash" horiz-adv-x="519" d="M105 187L26 125L42 235L120 297L178 708H304L262 408L493 589L478 480L246 298L221 114H522L506 0H79L105 187Z" />
<glyph unicode="&#x142;" glyph-name="lslash" horiz-adv-x="260" d="M108 273L29 204L44 313L123 382L176 756H296L260 501L339 570L324 463L245 395L190 0H70L108 273Z" />
<glyph unicode="&#x152;" glyph-name="OE" horiz-adv-x="1000" d="M704 420H974L958 306H688L661 114H966L950 0H453Q357 0 286 27T170 102T107 214T99 354Q110 430 146 494T240 606T377 681T552 708H1032L1016 594H728L704 420ZM602 594H539Q516 594 487 590T426
575T364 547T307 503T263 439T237 354Q227 281 249 235T310 161T392 124T472 114H535L602 594Z" />
<glyph unicode="&#x153;" glyph-name="oe" horiz-adv-x="926" d="M568 204Q563 177 571 155T594 117T629 93T668 84Q713 84 746 102T805 149L880 90Q832 34 777 11T655 -12Q595 -12 553 8T488 65Q446 25 397 7T295 -12Q241 -12 196 6T120 57T75 136T69 240Q77
297 104 343T171 423T261 474T366 492Q420 492 464 473T539 414Q577 454 625 473T728 492Q786 492 827 472T891 418T922 337T923 237L918 204H568ZM810 288Q817 341 790 371T715 402Q694 402 671 395T629 373T595 338T576 288H810ZM189 240Q185 210 191 183T212
135T251 102T309 90Q343 90 371 102T420 134T455 182T473 240Q477 270 472 297T451 345T410 378T351 390Q318 390 290 378T241 346T207 298T189 240Z" />
<glyph unicode="&#x160;" glyph-name="Scaron" horiz-adv-x="574" d="M345 900L401 810L483 900H593L458 756H325L231 900H345ZM504 556Q487 585 456 598T388 612Q366 612 345 607T305 591T275 563T259 521Q254 485 276 466T333 433T410 406T486 370T540 309T551
208Q543 151 516 109T450 38T361 -4T260 -18Q194 -18 136 4T41 78L149 170Q168 135 202 116T279 96Q301 96 323 102T365 120T399 150T417 193Q422 232 400 253T343 288T266 316T190 351T136 411T125 512Q133 567 161 607T229 673T319 713T417 726Q473 726 523 709T609
653L504 556Z" />
<glyph unicode="&#x161;" glyph-name="scaron" horiz-adv-x="444" d="M254 708L310 618L392 708H502L367 564H234L140 708H254ZM372 347Q344 396 285 396Q273 396 260 393T236 384T218 368T208 345Q205 323 222 313T268 296T328 282T387 259T429 216T438 142Q432
99 410 70T355 22T285 -4T210 -12Q154 -12 109 4T33 62L124 137Q144 111 167 95T229 78Q242 78 256 81T284 91T306 108T317 133Q321 158 304 170T258 189T198 203T138 224T96 265T87 337Q93 377 113 406T164 455T230 483T302 492Q350 492 394 476T462 419L372 347Z"
/>
<glyph unicode="&#x178;" glyph-name="Ydieresis" horiz-adv-x="630" d="M250 828Q254 857 278 878T336 900Q369 900 389 880T404 828Q399 797 374 777T316 756Q283 756 265 777T250 828ZM456 828Q460 857 484 878T542 900Q575 900 595 880T610 828Q605 797 580
777T522 756Q489 756 471 777T456 828ZM294 303L85 708H243L377 426L593 708H743L420 303L378 0H252L294 303Z" />
<glyph unicode="&#x17d;" glyph-name="Zcaron" horiz-adv-x="611" d="M364 900L420 810L502 900H612L477 756H344L250 900H364ZM51 114L496 594H124L140 708H669L653 594L205 114H592L576 0H35L51 114Z" />
<glyph unicode="&#x17e;" glyph-name="zcaron" horiz-adv-x="482" d="M273 708L329 618L411 708H521L386 564H253L159 708H273ZM49 111L344 382V384H99L113 480H503L488 371L189 96H461L448 0H34L49 111Z" />
<glyph unicode="&#x192;" glyph-name="florin" horiz-adv-x="592" d="M527 336H389L291 48Q259 -48 208 -93T78 -139Q52 -139 27 -133T-20 -115L37 -23Q56 -37 82 -37Q121 -37 141 -8T177 67L268 336H155L167 426H298L336 537Q349 574 366 607T407 666T465 705T542
720Q574 720 601 712T654 689L595 596Q571 612 543 612Q521 612 506 603T479 579T461 546T447 510L417 426H539L527 336Z" />
<glyph unicode="&#x2c6;" glyph-name="circumflex" horiz-adv-x="260" d="M277 564L220 654L139 564H27L162 708H297L391 564H277Z" />
<glyph unicode="&#x2c7;" glyph-name="caron" horiz-adv-x="260" d="M162 708L218 618L300 708H410L275 564H142L48 708H162Z" />
<glyph unicode="&#x2d8;" glyph-name="breve" horiz-adv-x="260" d="M126 708Q128 670 155 656T220 642Q263 642 289 654T333 708H399Q381 634 331 599T208 564Q136 564 95 598T59 708H126Z" />
<glyph unicode="&#x2d9;" glyph-name="dotaccent" horiz-adv-x="260" d="M142 636Q146 665 170 686T228 708Q261 708 281 688T296 636Q291 605 266 585T208 564Q175 564 157 585T142 636Z" />
<glyph unicode="&#x2da;" glyph-name="ring" horiz-adv-x="260" d="M327 655Q320 610 286 582T207 553Q162 553 136 581T116 654Q123 698 157 727T236 757Q281 757 307 729T327 655ZM279 655Q282 678 267 693T229 709Q206 709 187 694T165 655Q161 632 176 617T214
601Q237 601 256 616T279 655Z" />
<glyph unicode="&#x2db;" glyph-name="ogonek" horiz-adv-x="260" d="M174 -196Q151 -213 124 -223T69 -234Q49 -234 32 -229T1 -212T-18 -184T-21 -145Q-18 -124 -6 -102T24 -61T61 -24T99 6H160Q147 -4 131 -19T99 -51T73 -87T59 -122Q57 -141 68 -154T99 -168Q113
-168 128 -162T156 -147L174 -196Z" />
<glyph unicode="&#x2dc;" glyph-name="tilde" horiz-adv-x="260" d="M25 568Q32 592 43 615T69 655T106 684T155 695Q175 695 195 689T233 677T266 664T294 658Q314 658 326 670T346 700H412Q404 676 394 653T368 613T331 584T282 573Q262 573 242 579T204 592T171
605T143 611Q123 611 111 598T91 568H25Z" />
<glyph unicode="&#x2dd;" glyph-name="hungarumlaut" horiz-adv-x="260" d="M178 708H314L153 564H59L178 708ZM383 708H519L358 564H264L383 708Z" />
<glyph unicode="&#x2013;" glyph-name="endash" horiz-adv-x="500" d="M527 198H27L41 294H541L527 198Z" />
<glyph unicode="&#x2014;" glyph-name="emdash" horiz-adv-x="1000" d="M1027 198H27L41 294H1041L1027 198Z" />
<glyph unicode="&#x2018;" glyph-name="quoteleft" horiz-adv-x="296" d="M236 444H114L236 708H343L236 444Z" />
<glyph unicode="&#x2019;" glyph-name="quoteright" horiz-adv-x="296" d="M221 708H343L221 444H114L221 708Z" />
<glyph unicode="&#x201a;" glyph-name="quotesinglbase" horiz-adv-x="296" d="M141 138H263L141 -126H34L141 138Z" />
<glyph unicode="&#x201c;" glyph-name="quotedblleft" horiz-adv-x="519" d="M242 444H120L242 708H349L242 444ZM453 444H331L453 708H560L453 444Z" />
<glyph unicode="&#x201d;" glyph-name="quotedblright" horiz-adv-x="519" d="M438 708H560L438 444H331L438 708ZM227 708H349L227 444H120L227 708Z" />
<glyph unicode="&#x201e;" glyph-name="quotedblbase" horiz-adv-x="519" d="M357 138H479L357 -126H250L357 138ZM148 138H270L148 -126H41L148 138Z" />
<glyph unicode="&#x2020;" glyph-name="dagger" horiz-adv-x="593" d="M423 505H622L609 409H410L335 -126H221L296 409H98L111 505H309L338 708H452L423 505Z" />
<glyph unicode="&#x2021;" glyph-name="daggerdbl" horiz-adv-x="593" d="M426 523H619L606 427H413L374 156H567L554 60H361L335 -126H221L247 60H55L68 156H260L299 427H107L120 523H312L338 708H452L426 523Z" />
<glyph unicode="&#x2022;" glyph-name="bullet" horiz-adv-x="500" d="M122 354Q127 391 145 423T191 479T253 517T324 531Q361 531 391 517T442 479T472 423T476 354Q471 317 453 285T407 229T345 191T274 177Q237 177 207 191T156 229T126 285T122 354Z" />
<glyph unicode="&#x2026;" glyph-name="ellipsis" horiz-adv-x="1000" d="M96 70Q101 102 127 125T187 148Q219 148 240 126T257 72Q252 40 226 17T166 -6Q150 -6 137 0T113 16T99 40T96 70ZM429 70Q434 102 460 125T520 148Q552 148 573 126T590 72Q585 40 559
17T499 -6Q483 -6 470 0T446 16T432 40T429 70ZM762 70Q767 102 793 125T853 148Q885 148 906 126T923 72Q918 40 892 17T832 -6Q816 -6 803 0T779 16T765 40T762 70Z" />
<glyph unicode="&#x2030;" glyph-name="perthousand" horiz-adv-x="1167" d="M434 165Q439 201 457 233T502 289T564 327T634 341Q670 341 700 327T752 289T782 233T787 165Q782 129 764 97T718 40T656 2T585 -12Q549 -12 519 2T468 40T438 96T434 165ZM830 165Q835
201 853 233T898 289T960 327T1030 341Q1066 341 1096 327T1148 289T1178 233T1183 165Q1178 129 1160 97T1114 40T1052 2T981 -12Q945 -12 915 2T864 40T834 96T830 165ZM83 544Q88 580 106 612T152 668T214 706T284 720Q320 720 350 706T401 668T431 612T436
544Q431 508 413 476T367 419T305 381T234 367Q198 367 168 381T117 419T87 475T83 544ZM173 544Q168 506 188 482T247 457Q285 457 313 481T346 544Q351 582 330 606T271 630Q233 630 206 606T173 544ZM524 165Q519 127 539 103T597 78Q635 78 663 102T697 165Q702
203 681 227T622 251Q584 251 557 227T524 165ZM920 165Q915 127 935 103T993 78Q1031 78 1059 102T1093 165Q1098 203 1077 227T1018 251Q980 251 953 227T920 165ZM654 740L731 702L212 -32L134 6L654 740Z" />
<glyph unicode="&#x2039;" glyph-name="guilsinglleft" horiz-adv-x="296" d="M176 248L268 73L185 22L64 248L248 472L316 421L176 248Z" />
<glyph unicode="&#x203a;" glyph-name="guilsinglright" horiz-adv-x="296" d="M188 246L97 421L180 472L300 246L117 22L49 73L188 246Z" />
<glyph unicode="&#x2044;" glyph-name="fraction" horiz-adv-x="167" d="M354 740L431 702L-87 -32L-165 6L354 740Z" />
<glyph unicode="&#x20ac;" glyph-name="Euro" horiz-adv-x="592" d="M570 74Q540 39 484 14T356 -12Q296 -12 254 5T184 52T142 125T124 218H45L86 308H126Q127 318 128 328T131 349Q134 376 140 400H74L118 493H170Q217 603 302 661T496 720Q538 720 577 711T637
687L586 584Q545 613 479 613Q429 613 382 586T302 493H550L508 400H270Q266 386 264 372T259 343Q257 334 256 325T255 308H471L429 218H255Q263 161 291 128T377 94Q419 94 449 108T505 149L570 74V74Z" />
<glyph unicode="&#x2122;" glyph-name="trademark" horiz-adv-x="1000" d="M248 618H126L139 708H485L472 618H350L305 296H203L248 618ZM579 708H721L781 440L917 708H1059L1001 296H899L937 564H935L796 296H726L663 564H661L623 296H521L579 708Z" />
<glyph unicode="&#x2212;" glyph-name="minus" horiz-adv-x="666" d="M653 354L639 252H97L111 354H653Z" />
<glyph unicode="&#xfb01;" glyph-name="fi" horiz-adv-x="593" d="M164 378H65L79 480H178L188 548Q195 598 207 638T243 708T304 752T397 768Q438 768 472 761L450 659Q438 662 426 664T401 666Q376 666 360 658T333 637T318 605T310 567L298 480H409L395 378H284L231
0H111L164 378ZM487 480H607L540 0H420L487 480ZM494 643Q498 672 522 693T580 715Q613 715 633 695T648 643Q643 612 618 592T560 571Q527 571 509 592T494 643Z" />
<glyph unicode="&#xfb02;" glyph-name="fl" horiz-adv-x="593" d="M164 378H65L79 480H178L188 548Q195 598 207 638T243 708T304 752T397 768Q438 768 472 761L450 659Q438 662 426 664T401 666Q376 666 360 658T333 637T318 605T310 567L298 480H409L395 378H284L231
0H111L164 378ZM526 756H646L540 0H420L526 756Z" />
</font>
</defs>
</svg>
